(kicad_sch (version 20211123) (generator eeschema)

  (uuid e63e39d7-6ac0-4ffd-8aa3-1841a4541b55)

  (paper "A4")

  (lib_symbols
    (symbol "Battery_Management:MCP73831-2-OT" (pin_names (offset 1.016)) (in_bom yes) (on_board yes)
      (property "Reference" "U" (id 0) (at -7.62 6.35 0)
        (effects (font (size 1.27 1.27)) (justify left))
      )
      (property "Value" "MCP73831-2-OT" (id 1) (at 1.27 6.35 0)
        (effects (font (size 1.27 1.27)) (justify left))
      )
      (property "Footprint" "Package_TO_SOT_SMD:SOT-23-5" (id 2) (at 1.27 -6.35 0)
        (effects (font (size 1.27 1.27) italic) (justify left) hide)
      )
      (property "Datasheet" "http://ww1.microchip.com/downloads/en/DeviceDoc/20001984g.pdf" (id 3) (at -3.81 -1.27 0)
        (effects (font (size 1.27 1.27)) hide)
      )
      (property "ki_keywords" "battery charger lithium" (id 4) (at 0 0 0)
        (effects (font (size 1.27 1.27)) hide)
      )
      (property "ki_description" "Single cell, Li-Ion/Li-Po charge management controller, 4.20V, Tri-State Status Output, in SOT23-5 package" (id 5) (at 0 0 0)
        (effects (font (size 1.27 1.27)) hide)
      )
      (property "ki_fp_filters" "SOT?23*" (id 6) (at 0 0 0)
        (effects (font (size 1.27 1.27)) hide)
      )
      (symbol "MCP73831-2-OT_0_1"
        (rectangle (start -7.62 5.08) (end 7.62 -5.08)
          (stroke (width 0.254) (type default) (color 0 0 0 0))
          (fill (type background))
        )
      )
      (symbol "MCP73831-2-OT_1_1"
        (pin output line (at 10.16 -2.54 180) (length 2.54)
          (name "STAT" (effects (font (size 1.27 1.27))))
          (number "1" (effects (font (size 1.27 1.27))))
        )
        (pin power_in line (at 0 -7.62 90) (length 2.54)
          (name "VSS" (effects (font (size 1.27 1.27))))
          (number "2" (effects (font (size 1.27 1.27))))
        )
        (pin power_out line (at 10.16 2.54 180) (length 2.54)
          (name "VBAT" (effects (font (size 1.27 1.27))))
          (number "3" (effects (font (size 1.27 1.27))))
        )
        (pin power_in line (at 0 7.62 270) (length 2.54)
          (name "VDD" (effects (font (size 1.27 1.27))))
          (number "4" (effects (font (size 1.27 1.27))))
        )
        (pin input line (at -10.16 -2.54 0) (length 2.54)
          (name "PROG" (effects (font (size 1.27 1.27))))
          (number "5" (effects (font (size 1.27 1.27))))
        )
      )
    )
    (symbol "Connector:Conn_01x02_Male" (pin_names (offset 1.016) hide) (in_bom yes) (on_board yes)
      (property "Reference" "J" (id 0) (at 0 2.54 0)
        (effects (font (size 1.27 1.27)))
      )
      (property "Value" "Conn_01x02_Male" (id 1) (at 0 -5.08 0)
        (effects (font (size 1.27 1.27)))
      )
      (property "Footprint" "" (id 2) (at 0 0 0)
        (effects (font (size 1.27 1.27)) hide)
      )
      (property "Datasheet" "~" (id 3) (at 0 0 0)
        (effects (font (size 1.27 1.27)) hide)
      )
      (property "ki_keywords" "connector" (id 4) (at 0 0 0)
        (effects (font (size 1.27 1.27)) hide)
      )
      (property "ki_description" "Generic connector, single row, 01x02, script generated (kicad-library-utils/schlib/autogen/connector/)" (id 5) (at 0 0 0)
        (effects (font (size 1.27 1.27)) hide)
      )
      (property "ki_fp_filters" "Connector*:*_1x??_*" (id 6) (at 0 0 0)
        (effects (font (size 1.27 1.27)) hide)
      )
      (symbol "Conn_01x02_Male_1_1"
        (polyline
          (pts
            (xy 1.27 -2.54)
            (xy 0.8636 -2.54)
          )
          (stroke (width 0.1524) (type default) (color 0 0 0 0))
          (fill (type none))
        )
        (polyline
          (pts
            (xy 1.27 0)
            (xy 0.8636 0)
          )
          (stroke (width 0.1524) (type default) (color 0 0 0 0))
          (fill (type none))
        )
        (rectangle (start 0.8636 -2.413) (end 0 -2.667)
          (stroke (width 0.1524) (type default) (color 0 0 0 0))
          (fill (type outline))
        )
        (rectangle (start 0.8636 0.127) (end 0 -0.127)
          (stroke (width 0.1524) (type default) (color 0 0 0 0))
          (fill (type outline))
        )
        (pin passive line (at 5.08 0 180) (length 3.81)
          (name "Pin_1" (effects (font (size 1.27 1.27))))
          (number "1" (effects (font (size 1.27 1.27))))
        )
        (pin passive line (at 5.08 -2.54 180) (length 3.81)
          (name "Pin_2" (effects (font (size 1.27 1.27))))
          (number "2" (effects (font (size 1.27 1.27))))
        )
      )
    )
    (symbol "Connector:Conn_01x05_Female" (pin_names (offset 1.016) hide) (in_bom yes) (on_board yes)
      (property "Reference" "J" (id 0) (at 0 7.62 0)
        (effects (font (size 1.27 1.27)))
      )
      (property "Value" "Conn_01x05_Female" (id 1) (at 0 -7.62 0)
        (effects (font (size 1.27 1.27)))
      )
      (property "Footprint" "" (id 2) (at 0 0 0)
        (effects (font (size 1.27 1.27)) hide)
      )
      (property "Datasheet" "~" (id 3) (at 0 0 0)
        (effects (font (size 1.27 1.27)) hide)
      )
      (property "ki_keywords" "connector" (id 4) (at 0 0 0)
        (effects (font (size 1.27 1.27)) hide)
      )
      (property "ki_description" "Generic connector, single row, 01x05, script generated (kicad-library-utils/schlib/autogen/connector/)" (id 5) (at 0 0 0)
        (effects (font (size 1.27 1.27)) hide)
      )
      (property "ki_fp_filters" "Connector*:*_1x??_*" (id 6) (at 0 0 0)
        (effects (font (size 1.27 1.27)) hide)
      )
      (symbol "Conn_01x05_Female_1_1"
        (arc (start 0 -4.572) (mid -0.508 -5.08) (end 0 -5.588)
          (stroke (width 0.1524) (type default) (color 0 0 0 0))
          (fill (type none))
        )
        (arc (start 0 -2.032) (mid -0.508 -2.54) (end 0 -3.048)
          (stroke (width 0.1524) (type default) (color 0 0 0 0))
          (fill (type none))
        )
        (polyline
          (pts
            (xy -1.27 -5.08)
            (xy -0.508 -5.08)
          )
          (stroke (width 0.1524) (type default) (color 0 0 0 0))
          (fill (type none))
        )
        (polyline
          (pts
            (xy -1.27 -2.54)
            (xy -0.508 -2.54)
          )
          (stroke (width 0.1524) (type default) (color 0 0 0 0))
          (fill (type none))
        )
        (polyline
          (pts
            (xy -1.27 0)
            (xy -0.508 0)
          )
          (stroke (width 0.1524) (type default) (color 0 0 0 0))
          (fill (type none))
        )
        (polyline
          (pts
            (xy -1.27 2.54)
            (xy -0.508 2.54)
          )
          (stroke (width 0.1524) (type default) (color 0 0 0 0))
          (fill (type none))
        )
        (polyline
          (pts
            (xy -1.27 5.08)
            (xy -0.508 5.08)
          )
          (stroke (width 0.1524) (type default) (color 0 0 0 0))
          (fill (type none))
        )
        (arc (start 0 0.508) (mid -0.508 0) (end 0 -0.508)
          (stroke (width 0.1524) (type default) (color 0 0 0 0))
          (fill (type none))
        )
        (arc (start 0 3.048) (mid -0.508 2.54) (end 0 2.032)
          (stroke (width 0.1524) (type default) (color 0 0 0 0))
          (fill (type none))
        )
        (arc (start 0 5.588) (mid -0.508 5.08) (end 0 4.572)
          (stroke (width 0.1524) (type default) (color 0 0 0 0))
          (fill (type none))
        )
        (pin passive line (at -5.08 5.08 0) (length 3.81)
          (name "Pin_1" (effects (font (size 1.27 1.27))))
          (number "1" (effects (font (size 1.27 1.27))))
        )
        (pin passive line (at -5.08 2.54 0) (length 3.81)
          (name "Pin_2" (effects (font (size 1.27 1.27))))
          (number "2" (effects (font (size 1.27 1.27))))
        )
        (pin passive line (at -5.08 0 0) (length 3.81)
          (name "Pin_3" (effects (font (size 1.27 1.27))))
          (number "3" (effects (font (size 1.27 1.27))))
        )
        (pin passive line (at -5.08 -2.54 0) (length 3.81)
          (name "Pin_4" (effects (font (size 1.27 1.27))))
          (number "4" (effects (font (size 1.27 1.27))))
        )
        (pin passive line (at -5.08 -5.08 0) (length 3.81)
          (name "Pin_5" (effects (font (size 1.27 1.27))))
          (number "5" (effects (font (size 1.27 1.27))))
        )
      )
    )
    (symbol "Connector:USB_C_Receptacle" (pin_names (offset 1.016)) (in_bom yes) (on_board yes)
      (property "Reference" "J" (id 0) (at -10.16 29.21 0)
        (effects (font (size 1.27 1.27)) (justify left))
      )
      (property "Value" "USB_C_Receptacle" (id 1) (at 10.16 29.21 0)
        (effects (font (size 1.27 1.27)) (justify right))
      )
      (property "Footprint" "" (id 2) (at 3.81 0 0)
        (effects (font (size 1.27 1.27)) hide)
      )
      (property "Datasheet" "https://www.usb.org/sites/default/files/documents/usb_type-c.zip" (id 3) (at 3.81 0 0)
        (effects (font (size 1.27 1.27)) hide)
      )
      (property "ki_keywords" "usb universal serial bus type-C full-featured" (id 4) (at 0 0 0)
        (effects (font (size 1.27 1.27)) hide)
      )
      (property "ki_description" "USB Full-Featured Type-C Receptacle connector" (id 5) (at 0 0 0)
        (effects (font (size 1.27 1.27)) hide)
      )
      (property "ki_fp_filters" "USB*C*Receptacle*" (id 6) (at 0 0 0)
        (effects (font (size 1.27 1.27)) hide)
      )
      (symbol "USB_C_Receptacle_0_0"
        (rectangle (start -0.254 -35.56) (end 0.254 -34.544)
          (stroke (width 0) (type default) (color 0 0 0 0))
          (fill (type none))
        )
        (rectangle (start 10.16 -32.766) (end 9.144 -33.274)
          (stroke (width 0) (type default) (color 0 0 0 0))
          (fill (type none))
        )
        (rectangle (start 10.16 -30.226) (end 9.144 -30.734)
          (stroke (width 0) (type default) (color 0 0 0 0))
          (fill (type none))
        )
        (rectangle (start 10.16 -25.146) (end 9.144 -25.654)
          (stroke (width 0) (type default) (color 0 0 0 0))
          (fill (type none))
        )
        (rectangle (start 10.16 -22.606) (end 9.144 -23.114)
          (stroke (width 0) (type default) (color 0 0 0 0))
          (fill (type none))
        )
        (rectangle (start 10.16 -17.526) (end 9.144 -18.034)
          (stroke (width 0) (type default) (color 0 0 0 0))
          (fill (type none))
        )
        (rectangle (start 10.16 -14.986) (end 9.144 -15.494)
          (stroke (width 0) (type default) (color 0 0 0 0))
          (fill (type none))
        )
        (rectangle (start 10.16 -9.906) (end 9.144 -10.414)
          (stroke (width 0) (type default) (color 0 0 0 0))
          (fill (type none))
        )
        (rectangle (start 10.16 -7.366) (end 9.144 -7.874)
          (stroke (width 0) (type default) (color 0 0 0 0))
          (fill (type none))
        )
        (rectangle (start 10.16 -2.286) (end 9.144 -2.794)
          (stroke (width 0) (type default) (color 0 0 0 0))
          (fill (type none))
        )
        (rectangle (start 10.16 0.254) (end 9.144 -0.254)
          (stroke (width 0) (type default) (color 0 0 0 0))
          (fill (type none))
        )
        (rectangle (start 10.16 5.334) (end 9.144 4.826)
          (stroke (width 0) (type default) (color 0 0 0 0))
          (fill (type none))
        )
        (rectangle (start 10.16 7.874) (end 9.144 7.366)
          (stroke (width 0) (type default) (color 0 0 0 0))
          (fill (type none))
        )
        (rectangle (start 10.16 10.414) (end 9.144 9.906)
          (stroke (width 0) (type default) (color 0 0 0 0))
          (fill (type none))
        )
        (rectangle (start 10.16 12.954) (end 9.144 12.446)
          (stroke (width 0) (type default) (color 0 0 0 0))
          (fill (type none))
        )
        (rectangle (start 10.16 18.034) (end 9.144 17.526)
          (stroke (width 0) (type default) (color 0 0 0 0))
          (fill (type none))
        )
        (rectangle (start 10.16 20.574) (end 9.144 20.066)
          (stroke (width 0) (type default) (color 0 0 0 0))
          (fill (type none))
        )
        (rectangle (start 10.16 25.654) (end 9.144 25.146)
          (stroke (width 0) (type default) (color 0 0 0 0))
          (fill (type none))
        )
      )
      (symbol "USB_C_Receptacle_0_1"
        (rectangle (start -10.16 27.94) (end 10.16 -35.56)
          (stroke (width 0.254) (type default) (color 0 0 0 0))
          (fill (type background))
        )
        (arc (start -8.89 -3.81) (mid -6.985 -5.715) (end -5.08 -3.81)
          (stroke (width 0.508) (type default) (color 0 0 0 0))
          (fill (type none))
        )
        (arc (start -7.62 -3.81) (mid -6.985 -4.445) (end -6.35 -3.81)
          (stroke (width 0.254) (type default) (color 0 0 0 0))
          (fill (type none))
        )
        (arc (start -7.62 -3.81) (mid -6.985 -4.445) (end -6.35 -3.81)
          (stroke (width 0.254) (type default) (color 0 0 0 0))
          (fill (type outline))
        )
        (rectangle (start -7.62 -3.81) (end -6.35 3.81)
          (stroke (width 0.254) (type default) (color 0 0 0 0))
          (fill (type outline))
        )
        (arc (start -6.35 3.81) (mid -6.985 4.445) (end -7.62 3.81)
          (stroke (width 0.254) (type default) (color 0 0 0 0))
          (fill (type none))
        )
        (arc (start -6.35 3.81) (mid -6.985 4.445) (end -7.62 3.81)
          (stroke (width 0.254) (type default) (color 0 0 0 0))
          (fill (type outline))
        )
        (arc (start -5.08 3.81) (mid -6.985 5.715) (end -8.89 3.81)
          (stroke (width 0.508) (type default) (color 0 0 0 0))
          (fill (type none))
        )
        (polyline
          (pts
            (xy -8.89 -3.81)
            (xy -8.89 3.81)
          )
          (stroke (width 0.508) (type default) (color 0 0 0 0))
          (fill (type none))
        )
        (polyline
          (pts
            (xy -5.08 3.81)
            (xy -5.08 -3.81)
          )
          (stroke (width 0.508) (type default) (color 0 0 0 0))
          (fill (type none))
        )
      )
      (symbol "USB_C_Receptacle_1_1"
        (circle (center -2.54 1.143) (radius 0.635)
          (stroke (width 0.254) (type default) (color 0 0 0 0))
          (fill (type outline))
        )
        (circle (center 0 -5.842) (radius 1.27)
          (stroke (width 0) (type default) (color 0 0 0 0))
          (fill (type outline))
        )
        (polyline
          (pts
            (xy 0 -5.842)
            (xy 0 4.318)
          )
          (stroke (width 0.508) (type default) (color 0 0 0 0))
          (fill (type none))
        )
        (polyline
          (pts
            (xy 0 -3.302)
            (xy -2.54 -0.762)
            (xy -2.54 0.508)
          )
          (stroke (width 0.508) (type default) (color 0 0 0 0))
          (fill (type none))
        )
        (polyline
          (pts
            (xy 0 -2.032)
            (xy 2.54 0.508)
            (xy 2.54 1.778)
          )
          (stroke (width 0.508) (type default) (color 0 0 0 0))
          (fill (type none))
        )
        (polyline
          (pts
            (xy -1.27 4.318)
            (xy 0 6.858)
            (xy 1.27 4.318)
            (xy -1.27 4.318)
          )
          (stroke (width 0.254) (type default) (color 0 0 0 0))
          (fill (type outline))
        )
        (rectangle (start 1.905 1.778) (end 3.175 3.048)
          (stroke (width 0.254) (type default) (color 0 0 0 0))
          (fill (type outline))
        )
        (pin passive line (at 0 -40.64 90) (length 5.08)
          (name "GND" (effects (font (size 1.27 1.27))))
          (number "A1" (effects (font (size 1.27 1.27))))
        )
        (pin bidirectional line (at 15.24 -15.24 180) (length 5.08)
          (name "RX2-" (effects (font (size 1.27 1.27))))
          (number "A10" (effects (font (size 1.27 1.27))))
        )
        (pin bidirectional line (at 15.24 -17.78 180) (length 5.08)
          (name "RX2+" (effects (font (size 1.27 1.27))))
          (number "A11" (effects (font (size 1.27 1.27))))
        )
        (pin passive line (at 0 -40.64 90) (length 5.08) hide
          (name "GND" (effects (font (size 1.27 1.27))))
          (number "A12" (effects (font (size 1.27 1.27))))
        )
        (pin bidirectional line (at 15.24 -10.16 180) (length 5.08)
          (name "TX1+" (effects (font (size 1.27 1.27))))
          (number "A2" (effects (font (size 1.27 1.27))))
        )
        (pin bidirectional line (at 15.24 -7.62 180) (length 5.08)
          (name "TX1-" (effects (font (size 1.27 1.27))))
          (number "A3" (effects (font (size 1.27 1.27))))
        )
        (pin passive line (at 15.24 25.4 180) (length 5.08)
          (name "VBUS" (effects (font (size 1.27 1.27))))
          (number "A4" (effects (font (size 1.27 1.27))))
        )
        (pin bidirectional line (at 15.24 20.32 180) (length 5.08)
          (name "CC1" (effects (font (size 1.27 1.27))))
          (number "A5" (effects (font (size 1.27 1.27))))
        )
        (pin bidirectional line (at 15.24 7.62 180) (length 5.08)
          (name "D+" (effects (font (size 1.27 1.27))))
          (number "A6" (effects (font (size 1.27 1.27))))
        )
        (pin bidirectional line (at 15.24 12.7 180) (length 5.08)
          (name "D-" (effects (font (size 1.27 1.27))))
          (number "A7" (effects (font (size 1.27 1.27))))
        )
        (pin bidirectional line (at 15.24 -30.48 180) (length 5.08)
          (name "SBU1" (effects (font (size 1.27 1.27))))
          (number "A8" (effects (font (size 1.27 1.27))))
        )
        (pin passive line (at 15.24 25.4 180) (length 5.08) hide
          (name "VBUS" (effects (font (size 1.27 1.27))))
          (number "A9" (effects (font (size 1.27 1.27))))
        )
        (pin passive line (at 0 -40.64 90) (length 5.08) hide
          (name "GND" (effects (font (size 1.27 1.27))))
          (number "B1" (effects (font (size 1.27 1.27))))
        )
        (pin bidirectional line (at 15.24 0 180) (length 5.08)
          (name "RX1-" (effects (font (size 1.27 1.27))))
          (number "B10" (effects (font (size 1.27 1.27))))
        )
        (pin bidirectional line (at 15.24 -2.54 180) (length 5.08)
          (name "RX1+" (effects (font (size 1.27 1.27))))
          (number "B11" (effects (font (size 1.27 1.27))))
        )
        (pin passive line (at 0 -40.64 90) (length 5.08) hide
          (name "GND" (effects (font (size 1.27 1.27))))
          (number "B12" (effects (font (size 1.27 1.27))))
        )
        (pin bidirectional line (at 15.24 -25.4 180) (length 5.08)
          (name "TX2+" (effects (font (size 1.27 1.27))))
          (number "B2" (effects (font (size 1.27 1.27))))
        )
        (pin bidirectional line (at 15.24 -22.86 180) (length 5.08)
          (name "TX2-" (effects (font (size 1.27 1.27))))
          (number "B3" (effects (font (size 1.27 1.27))))
        )
        (pin passive line (at 15.24 25.4 180) (length 5.08) hide
          (name "VBUS" (effects (font (size 1.27 1.27))))
          (number "B4" (effects (font (size 1.27 1.27))))
        )
        (pin bidirectional line (at 15.24 17.78 180) (length 5.08)
          (name "CC2" (effects (font (size 1.27 1.27))))
          (number "B5" (effects (font (size 1.27 1.27))))
        )
        (pin bidirectional line (at 15.24 5.08 180) (length 5.08)
          (name "D+" (effects (font (size 1.27 1.27))))
          (number "B6" (effects (font (size 1.27 1.27))))
        )
        (pin bidirectional line (at 15.24 10.16 180) (length 5.08)
          (name "D-" (effects (font (size 1.27 1.27))))
          (number "B7" (effects (font (size 1.27 1.27))))
        )
        (pin bidirectional line (at 15.24 -33.02 180) (length 5.08)
          (name "SBU2" (effects (font (size 1.27 1.27))))
          (number "B8" (effects (font (size 1.27 1.27))))
        )
        (pin passive line (at 15.24 25.4 180) (length 5.08) hide
          (name "VBUS" (effects (font (size 1.27 1.27))))
          (number "B9" (effects (font (size 1.27 1.27))))
        )
        (pin passive line (at -7.62 -40.64 90) (length 5.08)
          (name "SHIELD" (effects (font (size 1.27 1.27))))
          (number "S1" (effects (font (size 1.27 1.27))))
        )
      )
    )
    (symbol "Device:C_Small" (pin_numbers hide) (pin_names (offset 0.254) hide) (in_bom yes) (on_board yes)
      (property "Reference" "C" (id 0) (at 0.254 1.778 0)
        (effects (font (size 1.27 1.27)) (justify left))
      )
      (property "Value" "C_Small" (id 1) (at 0.254 -2.032 0)
        (effects (font (size 1.27 1.27)) (justify left))
      )
      (property "Footprint" "" (id 2) (at 0 0 0)
        (effects (font (size 1.27 1.27)) hide)
      )
      (property "Datasheet" "~" (id 3) (at 0 0 0)
        (effects (font (size 1.27 1.27)) hide)
      )
      (property "ki_keywords" "capacitor cap" (id 4) (at 0 0 0)
        (effects (font (size 1.27 1.27)) hide)
      )
      (property "ki_description" "Unpolarized capacitor, small symbol" (id 5) (at 0 0 0)
        (effects (font (size 1.27 1.27)) hide)
      )
      (property "ki_fp_filters" "C_*" (id 6) (at 0 0 0)
        (effects (font (size 1.27 1.27)) hide)
      )
      (symbol "C_Small_0_1"
        (polyline
          (pts
            (xy -1.524 -0.508)
            (xy 1.524 -0.508)
          )
          (stroke (width 0.3302) (type default) (color 0 0 0 0))
          (fill (type none))
        )
        (polyline
          (pts
            (xy -1.524 0.508)
            (xy 1.524 0.508)
          )
          (stroke (width 0.3048) (type default) (color 0 0 0 0))
          (fill (type none))
        )
      )
      (symbol "C_Small_1_1"
        (pin passive line (at 0 2.54 270) (length 2.032)
          (name "~" (effects (font (size 1.27 1.27))))
          (number "1" (effects (font (size 1.27 1.27))))
        )
        (pin passive line (at 0 -2.54 90) (length 2.032)
          (name "~" (effects (font (size 1.27 1.27))))
          (number "2" (effects (font (size 1.27 1.27))))
        )
      )
    )
    (symbol "Device:D_Zener" (pin_numbers hide) (pin_names (offset 1.016) hide) (in_bom yes) (on_board yes)
      (property "Reference" "D" (id 0) (at 0 2.54 0)
        (effects (font (size 1.27 1.27)))
      )
      (property "Value" "D_Zener" (id 1) (at 0 -2.54 0)
        (effects (font (size 1.27 1.27)))
      )
      (property "Footprint" "" (id 2) (at 0 0 0)
        (effects (font (size 1.27 1.27)) hide)
      )
      (property "Datasheet" "~" (id 3) (at 0 0 0)
        (effects (font (size 1.27 1.27)) hide)
      )
      (property "ki_keywords" "diode" (id 4) (at 0 0 0)
        (effects (font (size 1.27 1.27)) hide)
      )
      (property "ki_description" "Zener diode" (id 5) (at 0 0 0)
        (effects (font (size 1.27 1.27)) hide)
      )
      (property "ki_fp_filters" "TO-???* *_Diode_* *SingleDiode* D_*" (id 6) (at 0 0 0)
        (effects (font (size 1.27 1.27)) hide)
      )
      (symbol "D_Zener_0_1"
        (polyline
          (pts
            (xy 1.27 0)
            (xy -1.27 0)
          )
          (stroke (width 0) (type default) (color 0 0 0 0))
          (fill (type none))
        )
        (polyline
          (pts
            (xy -1.27 -1.27)
            (xy -1.27 1.27)
            (xy -0.762 1.27)
          )
          (stroke (width 0.254) (type default) (color 0 0 0 0))
          (fill (type none))
        )
        (polyline
          (pts
            (xy 1.27 -1.27)
            (xy 1.27 1.27)
            (xy -1.27 0)
            (xy 1.27 -1.27)
          )
          (stroke (width 0.254) (type default) (color 0 0 0 0))
          (fill (type none))
        )
      )
      (symbol "D_Zener_1_1"
        (pin passive line (at -3.81 0 0) (length 2.54)
          (name "K" (effects (font (size 1.27 1.27))))
          (number "1" (effects (font (size 1.27 1.27))))
        )
        (pin passive line (at 3.81 0 180) (length 2.54)
          (name "A" (effects (font (size 1.27 1.27))))
          (number "2" (effects (font (size 1.27 1.27))))
        )
      )
    )
    (symbol "Device:LED_Small" (pin_numbers hide) (pin_names (offset 0.254) hide) (in_bom yes) (on_board yes)
      (property "Reference" "D" (id 0) (at -1.27 3.175 0)
        (effects (font (size 1.27 1.27)) (justify left))
      )
      (property "Value" "LED_Small" (id 1) (at -4.445 -2.54 0)
        (effects (font (size 1.27 1.27)) (justify left))
      )
      (property "Footprint" "" (id 2) (at 0 0 90)
        (effects (font (size 1.27 1.27)) hide)
      )
      (property "Datasheet" "~" (id 3) (at 0 0 90)
        (effects (font (size 1.27 1.27)) hide)
      )
      (property "ki_keywords" "LED diode light-emitting-diode" (id 4) (at 0 0 0)
        (effects (font (size 1.27 1.27)) hide)
      )
      (property "ki_description" "Light emitting diode, small symbol" (id 5) (at 0 0 0)
        (effects (font (size 1.27 1.27)) hide)
      )
      (property "ki_fp_filters" "LED* LED_SMD:* LED_THT:*" (id 6) (at 0 0 0)
        (effects (font (size 1.27 1.27)) hide)
      )
      (symbol "LED_Small_0_1"
        (polyline
          (pts
            (xy -0.762 -1.016)
            (xy -0.762 1.016)
          )
          (stroke (width 0.254) (type default) (color 0 0 0 0))
          (fill (type none))
        )
        (polyline
          (pts
            (xy 1.016 0)
            (xy -0.762 0)
          )
          (stroke (width 0) (type default) (color 0 0 0 0))
          (fill (type none))
        )
        (polyline
          (pts
            (xy 0.762 -1.016)
            (xy -0.762 0)
            (xy 0.762 1.016)
            (xy 0.762 -1.016)
          )
          (stroke (width 0.254) (type default) (color 0 0 0 0))
          (fill (type none))
        )
        (polyline
          (pts
            (xy 0 0.762)
            (xy -0.508 1.27)
            (xy -0.254 1.27)
            (xy -0.508 1.27)
            (xy -0.508 1.016)
          )
          (stroke (width 0) (type default) (color 0 0 0 0))
          (fill (type none))
        )
        (polyline
          (pts
            (xy 0.508 1.27)
            (xy 0 1.778)
            (xy 0.254 1.778)
            (xy 0 1.778)
            (xy 0 1.524)
          )
          (stroke (width 0) (type default) (color 0 0 0 0))
          (fill (type none))
        )
      )
      (symbol "LED_Small_1_1"
        (pin passive line (at -2.54 0 0) (length 1.778)
          (name "K" (effects (font (size 1.27 1.27))))
          (number "1" (effects (font (size 1.27 1.27))))
        )
        (pin passive line (at 2.54 0 180) (length 1.778)
          (name "A" (effects (font (size 1.27 1.27))))
          (number "2" (effects (font (size 1.27 1.27))))
        )
      )
    )
    (symbol "Device:R_Small" (pin_numbers hide) (pin_names (offset 0.254) hide) (in_bom yes) (on_board yes)
      (property "Reference" "R" (id 0) (at 0.762 0.508 0)
        (effects (font (size 1.27 1.27)) (justify left))
      )
      (property "Value" "R_Small" (id 1) (at 0.762 -1.016 0)
        (effects (font (size 1.27 1.27)) (justify left))
      )
      (property "Footprint" "" (id 2) (at 0 0 0)
        (effects (font (size 1.27 1.27)) hide)
      )
      (property "Datasheet" "~" (id 3) (at 0 0 0)
        (effects (font (size 1.27 1.27)) hide)
      )
      (property "ki_keywords" "R resistor" (id 4) (at 0 0 0)
        (effects (font (size 1.27 1.27)) hide)
      )
      (property "ki_description" "Resistor, small symbol" (id 5) (at 0 0 0)
        (effects (font (size 1.27 1.27)) hide)
      )
      (property "ki_fp_filters" "R_*" (id 6) (at 0 0 0)
        (effects (font (size 1.27 1.27)) hide)
      )
      (symbol "R_Small_0_1"
        (rectangle (start -0.762 1.778) (end 0.762 -1.778)
          (stroke (width 0.2032) (type default) (color 0 0 0 0))
          (fill (type none))
        )
      )
      (symbol "R_Small_1_1"
        (pin passive line (at 0 2.54 270) (length 0.762)
          (name "~" (effects (font (size 1.27 1.27))))
          (number "1" (effects (font (size 1.27 1.27))))
        )
        (pin passive line (at 0 -2.54 90) (length 0.762)
          (name "~" (effects (font (size 1.27 1.27))))
          (number "2" (effects (font (size 1.27 1.27))))
        )
      )
    )
    (symbol "Regulator_Linear:XC6206PxxxMR" (pin_names (offset 0.254)) (in_bom yes) (on_board yes)
      (property "Reference" "U" (id 0) (at -3.81 3.175 0)
        (effects (font (size 1.27 1.27)))
      )
      (property "Value" "XC6206PxxxMR" (id 1) (at 0 3.175 0)
        (effects (font (size 1.27 1.27)) (justify left))
      )
      (property "Footprint" "Package_TO_SOT_SMD:SOT-23" (id 2) (at 0 5.715 0)
        (effects (font (size 1.27 1.27) italic) hide)
      )
      (property "Datasheet" "https://www.torexsemi.com/file/xc6206/XC6206.pdf" (id 3) (at 0 0 0)
        (effects (font (size 1.27 1.27)) hide)
      )
      (property "ki_keywords" "Torex LDO Voltage Regulator Fixed Positive" (id 4) (at 0 0 0)
        (effects (font (size 1.27 1.27)) hide)
      )
      (property "ki_description" "Positive 60-250mA Low Dropout Regulator, Fixed Output, SOT-23" (id 5) (at 0 0 0)
        (effects (font (size 1.27 1.27)) hide)
      )
      (property "ki_fp_filters" "SOT?23*" (id 6) (at 0 0 0)
        (effects (font (size 1.27 1.27)) hide)
      )
      (symbol "XC6206PxxxMR_0_1"
        (rectangle (start -5.08 1.905) (end 5.08 -5.08)
          (stroke (width 0.254) (type default) (color 0 0 0 0))
          (fill (type background))
        )
      )
      (symbol "XC6206PxxxMR_1_1"
        (pin power_in line (at 0 -7.62 90) (length 2.54)
          (name "GND" (effects (font (size 1.27 1.27))))
          (number "1" (effects (font (size 1.27 1.27))))
        )
        (pin power_out line (at 7.62 0 180) (length 2.54)
          (name "VO" (effects (font (size 1.27 1.27))))
          (number "2" (effects (font (size 1.27 1.27))))
        )
        (pin power_in line (at -7.62 0 0) (length 2.54)
          (name "VI" (effects (font (size 1.27 1.27))))
          (number "3" (effects (font (size 1.27 1.27))))
        )
      )
    )
    (symbol "Transistor_FET:Si2319CDS" (pin_names hide) (in_bom yes) (on_board yes)
      (property "Reference" "Q" (id 0) (at 5.08 1.905 0)
        (effects (font (size 1.27 1.27)) (justify left))
      )
      (property "Value" "Si2319CDS" (id 1) (at 5.08 0 0)
        (effects (font (size 1.27 1.27)) (justify left))
      )
      (property "Footprint" "Package_TO_SOT_SMD:SOT-23" (id 2) (at 5.08 -1.905 0)
        (effects (font (size 1.27 1.27) italic) (justify left) hide)
      )
      (property "Datasheet" "http://www.vishay.com/docs/66709/si2319cd.pdf" (id 3) (at 0 0 0)
        (effects (font (size 1.27 1.27)) (justify left) hide)
      )
      (property "ki_keywords" "P-Channel MOSFET" (id 4) (at 0 0 0)
        (effects (font (size 1.27 1.27)) hide)
      )
      (property "ki_description" "-4.4A Id, -40V Vds, P-Channel MOSFET, SOT-23" (id 5) (at 0 0 0)
        (effects (font (size 1.27 1.27)) hide)
      )
      (property "ki_fp_filters" "SOT?23*" (id 6) (at 0 0 0)
        (effects (font (size 1.27 1.27)) hide)
      )
      (symbol "Si2319CDS_0_1"
        (polyline
          (pts
            (xy 0.254 0)
            (xy -2.54 0)
          )
          (stroke (width 0) (type default) (color 0 0 0 0))
          (fill (type none))
        )
        (polyline
          (pts
            (xy 0.254 1.905)
            (xy 0.254 -1.905)
          )
          (stroke (width 0.254) (type default) (color 0 0 0 0))
          (fill (type none))
        )
        (polyline
          (pts
            (xy 0.762 -1.27)
            (xy 0.762 -2.286)
          )
          (stroke (width 0.254) (type default) (color 0 0 0 0))
          (fill (type none))
        )
        (polyline
          (pts
            (xy 0.762 0.508)
            (xy 0.762 -0.508)
          )
          (stroke (width 0.254) (type default) (color 0 0 0 0))
          (fill (type none))
        )
        (polyline
          (pts
            (xy 0.762 2.286)
            (xy 0.762 1.27)
          )
          (stroke (width 0.254) (type default) (color 0 0 0 0))
          (fill (type none))
        )
        (polyline
          (pts
            (xy 2.54 2.54)
            (xy 2.54 1.778)
          )
          (stroke (width 0) (type default) (color 0 0 0 0))
          (fill (type none))
        )
        (polyline
          (pts
            (xy 2.54 -2.54)
            (xy 2.54 0)
            (xy 0.762 0)
          )
          (stroke (width 0) (type default) (color 0 0 0 0))
          (fill (type none))
        )
        (polyline
          (pts
            (xy 0.762 1.778)
            (xy 3.302 1.778)
            (xy 3.302 -1.778)
            (xy 0.762 -1.778)
          )
          (stroke (width 0) (type default) (color 0 0 0 0))
          (fill (type none))
        )
        (polyline
          (pts
            (xy 2.286 0)
            (xy 1.27 0.381)
            (xy 1.27 -0.381)
            (xy 2.286 0)
          )
          (stroke (width 0) (type default) (color 0 0 0 0))
          (fill (type outline))
        )
        (polyline
          (pts
            (xy 2.794 -0.508)
            (xy 2.921 -0.381)
            (xy 3.683 -0.381)
            (xy 3.81 -0.254)
          )
          (stroke (width 0) (type default) (color 0 0 0 0))
          (fill (type none))
        )
        (polyline
          (pts
            (xy 3.302 -0.381)
            (xy 2.921 0.254)
            (xy 3.683 0.254)
            (xy 3.302 -0.381)
          )
          (stroke (width 0) (type default) (color 0 0 0 0))
          (fill (type none))
        )
        (circle (center 1.651 0) (radius 2.794)
          (stroke (width 0.254) (type default) (color 0 0 0 0))
          (fill (type none))
        )
        (circle (center 2.54 -1.778) (radius 0.254)
          (stroke (width 0) (type default) (color 0 0 0 0))
          (fill (type outline))
        )
        (circle (center 2.54 1.778) (radius 0.254)
          (stroke (width 0) (type default) (color 0 0 0 0))
          (fill (type outline))
        )
      )
      (symbol "Si2319CDS_1_1"
        (pin input line (at -5.08 0 0) (length 2.54)
          (name "G" (effects (font (size 1.27 1.27))))
          (number "1" (effects (font (size 1.27 1.27))))
        )
        (pin passive line (at 2.54 -5.08 90) (length 2.54)
          (name "S" (effects (font (size 1.27 1.27))))
          (number "2" (effects (font (size 1.27 1.27))))
        )
        (pin passive line (at 2.54 5.08 270) (length 2.54)
          (name "D" (effects (font (size 1.27 1.27))))
          (number "3" (effects (font (size 1.27 1.27))))
        )
      )
    )
    (symbol "power:+3.3V" (power) (pin_names (offset 0)) (in_bom yes) (on_board yes)
      (property "Reference" "#PWR" (id 0) (at 0 -3.81 0)
        (effects (font (size 1.27 1.27)) hide)
      )
      (property "Value" "+3.3V" (id 1) (at 0 3.556 0)
        (effects (font (size 1.27 1.27)))
      )
      (property "Footprint" "" (id 2) (at 0 0 0)
        (effects (font (size 1.27 1.27)) hide)
      )
      (property "Datasheet" "" (id 3) (at 0 0 0)
        (effects (font (size 1.27 1.27)) hide)
      )
      (property "ki_keywords" "power-flag" (id 4) (at 0 0 0)
        (effects (font (size 1.27 1.27)) hide)
      )
      (property "ki_description" "Power symbol creates a global label with name \"+3.3V\"" (id 5) (at 0 0 0)
        (effects (font (size 1.27 1.27)) hide)
      )
      (symbol "+3.3V_0_1"
        (polyline
          (pts
            (xy -0.762 1.27)
            (xy 0 2.54)
          )
          (stroke (width 0) (type default) (color 0 0 0 0))
          (fill (type none))
        )
        (polyline
          (pts
            (xy 0 0)
            (xy 0 2.54)
          )
          (stroke (width 0) (type default) (color 0 0 0 0))
          (fill (type none))
        )
        (polyline
          (pts
            (xy 0 2.54)
            (xy 0.762 1.27)
          )
          (stroke (width 0) (type default) (color 0 0 0 0))
          (fill (type none))
        )
      )
      (symbol "+3.3V_1_1"
        (pin power_in line (at 0 0 90) (length 0) hide
          (name "+3V3" (effects (font (size 1.27 1.27))))
          (number "1" (effects (font (size 1.27 1.27))))
        )
      )
    )
    (symbol "power:+BATT" (power) (pin_names (offset 0)) (in_bom yes) (on_board yes)
      (property "Reference" "#PWR" (id 0) (at 0 -3.81 0)
        (effects (font (size 1.27 1.27)) hide)
      )
      (property "Value" "+BATT" (id 1) (at 0 3.556 0)
        (effects (font (size 1.27 1.27)))
      )
      (property "Footprint" "" (id 2) (at 0 0 0)
        (effects (font (size 1.27 1.27)) hide)
      )
      (property "Datasheet" "" (id 3) (at 0 0 0)
        (effects (font (size 1.27 1.27)) hide)
      )
      (property "ki_keywords" "power-flag battery" (id 4) (at 0 0 0)
        (effects (font (size 1.27 1.27)) hide)
      )
      (property "ki_description" "Power symbol creates a global label with name \"+BATT\"" (id 5) (at 0 0 0)
        (effects (font (size 1.27 1.27)) hide)
      )
      (symbol "+BATT_0_1"
        (polyline
          (pts
            (xy -0.762 1.27)
            (xy 0 2.54)
          )
          (stroke (width 0) (type default) (color 0 0 0 0))
          (fill (type none))
        )
        (polyline
          (pts
            (xy 0 0)
            (xy 0 2.54)
          )
          (stroke (width 0) (type default) (color 0 0 0 0))
          (fill (type none))
        )
        (polyline
          (pts
            (xy 0 2.54)
            (xy 0.762 1.27)
          )
          (stroke (width 0) (type default) (color 0 0 0 0))
          (fill (type none))
        )
      )
      (symbol "+BATT_1_1"
        (pin power_in line (at 0 0 90) (length 0) hide
          (name "+BATT" (effects (font (size 1.27 1.27))))
          (number "1" (effects (font (size 1.27 1.27))))
        )
      )
    )
    (symbol "power:GND" (power) (pin_names (offset 0)) (in_bom yes) (on_board yes)
      (property "Reference" "#PWR" (id 0) (at 0 -6.35 0)
        (effects (font (size 1.27 1.27)) hide)
      )
      (property "Value" "GND" (id 1) (at 0 -3.81 0)
        (effects (font (size 1.27 1.27)))
      )
      (property "Footprint" "" (id 2) (at 0 0 0)
        (effects (font (size 1.27 1.27)) hide)
      )
      (property "Datasheet" "" (id 3) (at 0 0 0)
        (effects (font (size 1.27 1.27)) hide)
      )
      (property "ki_keywords" "power-flag" (id 4) (at 0 0 0)
        (effects (font (size 1.27 1.27)) hide)
      )
      (property "ki_description" "Power symbol creates a global label with name \"GND\" , ground" (id 5) (at 0 0 0)
        (effects (font (size 1.27 1.27)) hide)
      )
      (symbol "GND_0_1"
        (polyline
          (pts
            (xy 0 0)
            (xy 0 -1.27)
            (xy 1.27 -1.27)
            (xy 0 -2.54)
            (xy -1.27 -1.27)
            (xy 0 -1.27)
          )
          (stroke (width 0) (type default) (color 0 0 0 0))
          (fill (type none))
        )
      )
      (symbol "GND_1_1"
        (pin power_in line (at 0 0 270) (length 0) hide
          (name "GND" (effects (font (size 1.27 1.27))))
          (number "1" (effects (font (size 1.27 1.27))))
        )
      )
    )
    (symbol "power:VBUS" (power) (pin_names (offset 0)) (in_bom yes) (on_board yes)
      (property "Reference" "#PWR" (id 0) (at 0 -3.81 0)
        (effects (font (size 1.27 1.27)) hide)
      )
      (property "Value" "VBUS" (id 1) (at 0 3.81 0)
        (effects (font (size 1.27 1.27)))
      )
      (property "Footprint" "" (id 2) (at 0 0 0)
        (effects (font (size 1.27 1.27)) hide)
      )
      (property "Datasheet" "" (id 3) (at 0 0 0)
        (effects (font (size 1.27 1.27)) hide)
      )
      (property "ki_keywords" "power-flag" (id 4) (at 0 0 0)
        (effects (font (size 1.27 1.27)) hide)
      )
      (property "ki_description" "Power symbol creates a global label with name \"VBUS\"" (id 5) (at 0 0 0)
        (effects (font (size 1.27 1.27)) hide)
      )
      (symbol "VBUS_0_1"
        (polyline
          (pts
            (xy -0.762 1.27)
            (xy 0 2.54)
          )
          (stroke (width 0) (type default) (color 0 0 0 0))
          (fill (type none))
        )
        (polyline
          (pts
            (xy 0 0)
            (xy 0 2.54)
          )
          (stroke (width 0) (type default) (color 0 0 0 0))
          (fill (type none))
        )
        (polyline
          (pts
            (xy 0 2.54)
            (xy 0.762 1.27)
          )
          (stroke (width 0) (type default) (color 0 0 0 0))
          (fill (type none))
        )
      )
      (symbol "VBUS_1_1"
        (pin power_in line (at 0 0 90) (length 0) hide
          (name "VBUS" (effects (font (size 1.27 1.27))))
          (number "1" (effects (font (size 1.27 1.27))))
        )
      )
    )
  )

  (junction (at 54.9148 46.5328) (diameter 0) (color 0 0 0 0)
    (uuid 0c71b4ac-c851-4cdf-b099-5144fae98472)
  )
  (junction (at 57.5564 144.4752) (diameter 0) (color 0 0 0 0)
    (uuid 29c6d476-cfaf-463f-8dbe-d9a858224155)
  )
  (junction (at 54.9148 41.4528) (diameter 0) (color 0 0 0 0)
    (uuid 4b5045ef-e7ca-4ebf-be96-ddfa3ac69838)
  )
  (junction (at 42.0624 137.7696) (diameter 0) (color 0 0 0 0)
    (uuid 4d0c7963-df70-4cb0-b172-cacc561d7c00)
  )
  (junction (at 55.0672 144.4752) (diameter 0) (color 0 0 0 0)
    (uuid 6c68e5ab-22da-43cd-b9aa-c3493ab37b94)
  )
  (junction (at 85.2932 144.4752) (diameter 0) (color 0 0 0 0)
    (uuid 9f33ef92-543b-49f0-9a0d-161303daf360)
  )
  (junction (at 65.4304 144.4752) (diameter 0) (color 0 0 0 0)
    (uuid a9003d7a-d6ec-42fd-b1fd-eda620526b28)
  )
  (junction (at 45.0088 137.7696) (diameter 0) (color 0 0 0 0)
    (uuid ca9f2879-15ee-490c-9646-a4cf0d782892)
  )

  (polyline (pts (xy 179.0192 58.8772) (xy 250.0884 58.8772))
    (stroke (width 0) (type default) (color 0 0 0 0))
    (uuid 04cc960d-df77-4cf8-97e5-cdecf5f6ade5)
  )

  (wire (pts (xy 52.8828 144.4752) (xy 55.0672 144.4752))
    (stroke (width 0) (type default) (color 0 0 0 0))
    (uuid 0a7a983c-74d5-45da-9921-a3b79ff069a8)
  )
  (wire (pts (xy 45.0088 137.7696) (xy 47.4472 137.7696))
    (stroke (width 0) (type default) (color 0 0 0 0))
    (uuid 193666af-1ef3-4e49-95dc-98d9e7a6d08d)
  )
  (wire (pts (xy 80.6704 144.4752) (xy 85.2932 144.4752))
    (stroke (width 0) (type default) (color 0 0 0 0))
    (uuid 1a9689f3-2297-4ad8-a45c-fb4d15f4439a)
  )
  (polyline (pts (xy 31.9024 127.254) (xy 31.9024 159.9184))
    (stroke (width 0) (type default) (color 0 0 0 0))
    (uuid 1b59fe00-eef1-46cf-864b-671a27093d3e)
  )

  (wire (pts (xy 45.0088 144.4752) (xy 45.0088 137.7696))
    (stroke (width 0) (type default) (color 0 0 0 0))
    (uuid 21e9126d-f17d-4257-b462-1909974b9ede)
  )
  (wire (pts (xy 42.0624 137.7696) (xy 42.0624 138.684))
    (stroke (width 0) (type default) (color 0 0 0 0))
    (uuid 285bf30b-2b01-4c6d-a5f9-d45d27d4af98)
  )
  (wire (pts (xy 214.7824 46.8884) (xy 218.9734 46.8884))
    (stroke (width 0) (type default) (color 0 0 0 0))
    (uuid 2877b2d2-2615-4efb-8dc8-1930a3115a1c)
  )
  (wire (pts (xy 89.5096 66.9036) (xy 93.218 66.9036))
    (stroke (width 0) (type default) (color 0 0 0 0))
    (uuid 32505375-3b8e-4c13-86e5-18a849f3ca19)
  )
  (wire (pts (xy 90.8304 69.4436) (xy 93.218 69.4436))
    (stroke (width 0) (type default) (color 0 0 0 0))
    (uuid 32b39ee9-1d35-488e-8971-4f269397f0a4)
  )
  (polyline (pts (xy 93.3196 159.9184) (xy 93.3196 127.254))
    (stroke (width 0) (type default) (color 0 0 0 0))
    (uuid 3bf22c03-939f-40c1-8396-cbea965bd655)
  )

  (wire (pts (xy 42.0624 137.7696) (xy 45.0088 137.7696))
    (stroke (width 0) (type default) (color 0 0 0 0))
    (uuid 3e6da746-ed17-4015-b2f2-a1d12ce2e485)
  )
  (wire (pts (xy 54.9148 46.5328) (xy 54.9148 49.0728))
    (stroke (width 0) (type default) (color 0 0 0 0))
    (uuid 67f1780a-cea9-40f9-9427-ee5f232fc77f)
  )
  (wire (pts (xy 54.9148 46.5328) (xy 58.0136 46.5328))
    (stroke (width 0) (type default) (color 0 0 0 0))
    (uuid 6cd049c6-0c65-4125-942e-957de1da7cab)
  )
  (polyline (pts (xy 179.0192 30.8356) (xy 250.0884 30.8356))
    (stroke (width 0) (type default) (color 0 0 0 0))
    (uuid 7eac6e25-532b-44a0-a2bf-62c4f9280dd6)
  )

  (wire (pts (xy 45.2628 144.4752) (xy 45.0088 144.4752))
    (stroke (width 0) (type default) (color 0 0 0 0))
    (uuid 82b60dd4-c4e4-428c-9d9c-ba619ce60024)
  )
  (polyline (pts (xy 31.9024 127.254) (xy 93.3196 127.254))
    (stroke (width 0) (type default) (color 0 0 0 0))
    (uuid 92a2072e-dd0e-4b73-88f0-2b1255306237)
  )

  (wire (pts (xy 55.0672 144.4752) (xy 57.5564 144.4752))
    (stroke (width 0) (type default) (color 0 0 0 0))
    (uuid 9977d72c-e01b-4b22-953b-ba72aa9af042)
  )
  (wire (pts (xy 42.0624 136.8044) (xy 42.0624 137.7696))
    (stroke (width 0) (type default) (color 0 0 0 0))
    (uuid a059f65a-f995-4925-b373-6604ce054488)
  )
  (polyline (pts (xy 24.9428 18.9992) (xy 125.3236 18.9992))
    (stroke (width 0) (type default) (color 0 0 0 0))
    (uuid a31b0f17-8afc-457c-97bb-2973e8569c5d)
  )

  (wire (pts (xy 54.9148 41.4528) (xy 54.9148 43.9928))
    (stroke (width 0) (type default) (color 0 0 0 0))
    (uuid a8eded5a-6119-4626-a61a-0990fee0e6da)
  )
  (polyline (pts (xy 250.0884 58.8772) (xy 250.0884 30.8356))
    (stroke (width 0) (type default) (color 0 0 0 0))
    (uuid b04c6802-7737-4777-9efc-9eb9cd8b4e5a)
  )

  (wire (pts (xy 90.8304 71.9836) (xy 93.218 71.9836))
    (stroke (width 0) (type default) (color 0 0 0 0))
    (uuid b09062c2-5e1c-4991-8e1f-465352402707)
  )
  (wire (pts (xy 224.0534 46.8884) (xy 229.2604 46.8884))
    (stroke (width 0) (type default) (color 0 0 0 0))
    (uuid bc34d9b8-b134-48b6-9c66-32b934102dbe)
  )
  (wire (pts (xy 54.9148 41.4528) (xy 58.0644 41.4528))
    (stroke (width 0) (type default) (color 0 0 0 0))
    (uuid c450b68a-2eb7-47af-9904-c06dd8a76b90)
  )
  (polyline (pts (xy 24.9428 103.0732) (xy 125.3236 103.0732))
    (stroke (width 0) (type default) (color 0 0 0 0))
    (uuid c79c6e0b-9f54-423f-b14e-fc300db04d36)
  )
  (polyline (pts (xy 24.9428 18.9992) (xy 24.9428 103.0732))
    (stroke (width 0) (type default) (color 0 0 0 0))
    (uuid c7ae84ad-2ae8-40c3-a949-422a4f639cc9)
  )

  (wire (pts (xy 214.7824 41.8084) (xy 217.4494 41.8084))
    (stroke (width 0) (type default) (color 0 0 0 0))
    (uuid cfe7998d-2524-403d-8462-bc0e768b3aaf)
  )
  (wire (pts (xy 57.5564 144.4752) (xy 65.4304 144.4752))
    (stroke (width 0) (type default) (color 0 0 0 0))
    (uuid d3ef5ce2-3fbe-479c-b6ca-9c09fd128627)
  )
  (wire (pts (xy 55.0672 144.4752) (xy 55.0672 142.8496))
    (stroke (width 0) (type default) (color 0 0 0 0))
    (uuid d5b1d99c-abb1-41be-a756-9d3c51d7b488)
  )
  (polyline (pts (xy 31.9024 159.9184) (xy 93.3196 159.9184))
    (stroke (width 0) (type default) (color 0 0 0 0))
    (uuid db72379d-3ed1-4877-9456-c1cb4dd4f859)
  )
  (polyline (pts (xy 179.0192 30.8356) (xy 179.0192 58.8772))
    (stroke (width 0) (type default) (color 0 0 0 0))
    (uuid fa7d46ba-8941-450e-a33e-f9f881d383de)
  )
  (polyline (pts (xy 125.3236 103.0732) (xy 125.3236 18.9992))
    (stroke (width 0) (type default) (color 0 0 0 0))
    (uuid fc100f85-fee0-40d2-811b-08a627fb5eb0)
  )

  (wire (pts (xy 234.3404 46.8884) (xy 237.1344 46.8884))
    (stroke (width 0) (type default) (color 0 0 0 0))
    (uuid fd50a4ab-39e0-4904-839b-875436b7eda5)
  )

  (text "Charging Circuit\n" (at 179.1716 29.1592 0)
    (effects (font (size 1.27 1.27)) (justify left bottom))
    (uuid 96f2d344-c7fa-43e4-898f-a6bae72f6235)
  )
  (text "Connectors - USB, Header Pins\n" (at 24.8412 17.4244 0)
    (effects (font (size 1.27 1.27)) (justify left bottom))
    (uuid d56dd671-98a6-476d-8e57-fce935a1b75e)
  )
  (text "LDO\n" (at 31.9024 126.7968 0)
    (effects (font (size 1.27 1.27)) (justify left bottom))
    (uuid f2ab506a-ab42-41b2-ac6b-29949ef335b5)
  )

  (label "D-" (at 90.8304 71.9836 0)
    (effects (font (size 1.27 1.27)) (justify left bottom))
    (uuid 0f480ae6-12b4-4ec8-890b-665a9151d115)
  )
  (label "D+" (at 90.8304 69.4436 0)
    (effects (font (size 1.27 1.27)) (justify left bottom))
    (uuid 33704717-46f3-4810-9bf1-16e289f410bd)
  )
  (label "D-" (at 58.0644 41.4528 180)
    (effects (font (size 1.27 1.27)) (justify right bottom))
    (uuid 387701e2-1b20-4c9c-86db-61f0ddf0becd)
  )
  (label "D+" (at 58.0136 46.5328 180)
    (effects (font (size 1.27 1.27)) (justify right bottom))
    (uuid ea7361db-5824-4f38-811a-482c2044727f)
  )

  (symbol (lib_id "Device:R_Small") (at 42.0624 141.224 180) (unit 1)
    (in_bom yes) (on_board yes)
    (uuid 019d7b21-31c7-4216-b80e-7ddb0515d0f7)
    (property "Reference" "R200" (id 0) (at 35.56 140.4112 0)
      (effects (font (size 1.27 1.27)) (justify right))
    )
    (property "Value" "10k" (id 1) (at 36.6014 142.4178 0)
      (effects (font (size 1.27 1.27)) (justify right))
    )
    (property "Footprint" "Resistor_SMD:R_0603_1608Metric" (id 2) (at 42.0624 141.224 0)
      (effects (font (size 1.27 1.27)) hide)
    )
    (property "Datasheet" "~" (id 3) (at 42.0624 141.224 0)
      (effects (font (size 1.27 1.27)) hide)
    )
    (pin "1" (uuid b35364a2-1e34-42bd-a30a-04ca87ea93ae))
    (pin "2" (uuid e412cec9-5b63-46c8-a7ea-5a1c312b8c33))
  )

  (symbol (lib_id "power:GND") (at 39.6748 94.7928 0) (unit 1)
    (in_bom yes) (on_board yes) (fields_autoplaced)
    (uuid 20855bdc-116d-4eb2-b5ee-c8b9ebefaab0)
    (property "Reference" "#PWR0121" (id 0) (at 39.6748 101.1428 0)
      (effects (font (size 1.27 1.27)) hide)
    )
    (property "Value" "GND" (id 1) (at 39.6748 99.3648 0))
    (property "Footprint" "" (id 2) (at 39.6748 94.7928 0)
      (effects (font (size 1.27 1.27)) hide)
    )
    (property "Datasheet" "" (id 3) (at 39.6748 94.7928 0)
      (effects (font (size 1.27 1.27)) hide)
    )
    (pin "1" (uuid ced04967-57c3-4406-ac10-40f52af96afb))
  )

  (symbol (lib_id "power:VBUS") (at 204.6224 36.7284 0) (unit 1)
    (in_bom yes) (on_board yes)
    (uuid 218bb48a-88af-4b90-9b77-9f341ab83dcb)
    (property "Reference" "#PWR0110" (id 0) (at 204.6224 40.5384 0)
      (effects (font (size 1.27 1.27)) hide)
    )
    (property "Value" "VBUS" (id 1) (at 204.6224 33.0454 0))
    (property "Footprint" "" (id 2) (at 204.6224 36.7284 0)
      (effects (font (size 1.27 1.27)) hide)
    )
    (property "Datasheet" "" (id 3) (at 204.6224 36.7284 0)
      (effects (font (size 1.27 1.27)) hide)
    )
    (pin "1" (uuid 26297bb0-5e24-46d9-9d26-d28f5364ec7e))
  )

  (symbol (lib_id "power:GND") (at 97.536 34.29 0) (unit 1)
    (in_bom yes) (on_board yes)
    (uuid 250e9166-304f-4822-bb9f-55daa72eff87)
    (property "Reference" "#PWR0125" (id 0) (at 97.536 40.64 0)
      (effects (font (size 1.27 1.27)) hide)
    )
    (property "Value" "GND" (id 1) (at 97.5868 38.2016 0))
    (property "Footprint" "" (id 2) (at 97.536 34.29 0)
      (effects (font (size 1.27 1.27)) hide)
    )
    (property "Datasheet" "" (id 3) (at 97.536 34.29 0)
      (effects (font (size 1.27 1.27)) hide)
    )
    (pin "1" (uuid cd1e12dc-33b8-44aa-8688-32d42b455b44))
  )

  (symbol (lib_id "power:GND") (at 65.4304 149.5552 0) (unit 1)
    (in_bom yes) (on_board yes) (fields_autoplaced)
    (uuid 290fa1db-7723-4c1b-980e-0587d0c26131)
    (property "Reference" "#PWR0102" (id 0) (at 65.4304 155.9052 0)
      (effects (font (size 1.27 1.27)) hide)
    )
    (property "Value" "GND" (id 1) (at 65.4304 154.1272 0))
    (property "Footprint" "" (id 2) (at 65.4304 149.5552 0)
      (effects (font (size 1.27 1.27)) hide)
    )
    (property "Datasheet" "" (id 3) (at 65.4304 149.5552 0)
      (effects (font (size 1.27 1.27)) hide)
    )
    (pin "1" (uuid c5c8d696-30f3-4095-8993-ebd522ac9a17))
  )

  (symbol (lib_id "power:GND") (at 85.2932 149.5552 0) (unit 1)
    (in_bom yes) (on_board yes) (fields_autoplaced)
    (uuid 291bd815-fda1-4dd8-91cb-d9a1114fd39f)
    (property "Reference" "#PWR0113" (id 0) (at 85.2932 155.9052 0)
      (effects (font (size 1.27 1.27)) hide)
    )
    (property "Value" "GND" (id 1) (at 85.2932 154.1272 0))
    (property "Footprint" "" (id 2) (at 85.2932 149.5552 0)
      (effects (font (size 1.27 1.27)) hide)
    )
    (property "Datasheet" "" (id 3) (at 85.2932 149.5552 0)
      (effects (font (size 1.27 1.27)) hide)
    )
    (pin "1" (uuid 7cd62e09-87c5-402b-8fd5-39743e7c62b5))
  )

  (symbol (lib_id "Device:C_Small") (at 185.7248 41.3512 0) (unit 1)
    (in_bom yes) (on_board yes)
    (uuid 2c1c48d7-5eed-4e66-8538-b56fffd6225d)
    (property "Reference" "C100" (id 0) (at 180.1368 40.2082 0)
      (effects (font (size 1.27 1.27)) (justify left))
    )
    (property "Value" "4.7uF" (id 1) (at 180.1368 42.6212 0)
      (effects (font (size 1.27 1.27)) (justify left))
    )
    (property "Footprint" "Capacitor_SMD:C_0603_1608Metric" (id 2) (at 185.7248 41.3512 0)
      (effects (font (size 1.27 1.27)) hide)
    )
    (property "Datasheet" "~" (id 3) (at 185.7248 41.3512 0)
      (effects (font (size 1.27 1.27)) hide)
    )
    (pin "1" (uuid 430a6733-8769-4134-bae0-451dd42dc28a))
    (pin "2" (uuid bd52166d-d313-40eb-8f8e-679e5687e4ed))
  )

  (symbol (lib_id "power:VBUS") (at 93.218 64.3636 0) (unit 1)
    (in_bom yes) (on_board yes)
    (uuid 314c6ab1-a724-4355-883e-e532b1260dc3)
    (property "Reference" "#PWR0115" (id 0) (at 93.218 68.1736 0)
      (effects (font (size 1.27 1.27)) hide)
    )
    (property "Value" "VBUS" (id 1) (at 93.218 60.706 0))
    (property "Footprint" "" (id 2) (at 93.218 64.3636 0)
      (effects (font (size 1.27 1.27)) hide)
    )
    (property "Datasheet" "" (id 3) (at 93.218 64.3636 0)
      (effects (font (size 1.27 1.27)) hide)
    )
    (pin "1" (uuid 8f36f9d9-726d-4c3f-9f80-3f03d5d46e26))
  )

  (symbol (lib_id "Connector:Conn_01x02_Male") (at 92.456 31.75 0) (unit 1)
    (in_bom yes) (on_board yes)
    (uuid 3868206d-43bb-4838-9d0c-2eb65d1e2958)
    (property "Reference" "J2" (id 0) (at 92.456 28.0416 0))
    (property "Value" "Conn_01x02_Male" (id 1) (at 86.4616 30.3784 0))
    (property "Footprint" "Connector_PinHeader_2.00mm:PinHeader_1x02_P2.00mm_Vertical" (id 2) (at 92.456 31.75 0)
      (effects (font (size 1.27 1.27)) hide)
    )
    (property "Datasheet" "~" (id 3) (at 92.456 31.75 0)
      (effects (font (size 1.27 1.27)) hide)
    )
    (pin "1" (uuid db3ae1b2-676c-479a-8233-5066028472e3))
    (pin "2" (uuid c34b442e-ca23-40ba-b970-02875ff6d2ec))
  )

  (symbol (lib_id "Connector:Conn_01x05_Female") (at 98.298 69.4436 0) (unit 1)
    (in_bom yes) (on_board yes) (fields_autoplaced)
    (uuid 4028e101-f538-4424-af02-47805cbd6370)
    (property "Reference" "J3" (id 0) (at 99.06 68.1735 0)
      (effects (font (size 1.27 1.27)) (justify left))
    )
    (property "Value" "Conn_01x05_Female" (id 1) (at 99.06 70.7135 0)
      (effects (font (size 1.27 1.27)) (justify left))
    )
    (property "Footprint" "Connector_PinHeader_2.00mm:PinHeader_1x05_P2.00mm_Vertical" (id 2) (at 98.298 69.4436 0)
      (effects (font (size 1.27 1.27)) hide)
    )
    (property "Datasheet" "~" (id 3) (at 98.298 69.4436 0)
      (effects (font (size 1.27 1.27)) hide)
    )
    (pin "1" (uuid 0f47849f-bbbd-433d-9af1-3ac5552c1e10))
    (pin "2" (uuid 37557e9a-6d6b-4466-b856-c6f1ee1b89b3))
    (pin "3" (uuid 303cb9b3-c9a9-4212-bdc1-dee9b76b22ad))
    (pin "4" (uuid 16566020-f23b-43f5-b978-cb1332c5c163))
    (pin "5" (uuid f1f38b7c-014d-4e35-b587-1e164672b9a9))
  )

  (symbol (lib_id "power:+BATT") (at 246.38 40.894 0) (unit 1)
    (in_bom yes) (on_board yes)
    (uuid 410f663c-011c-49e1-9b7b-ee43eb22bddc)
    (property "Reference" "#PWR0106" (id 0) (at 246.38 44.704 0)
      (effects (font (size 1.27 1.27)) hide)
    )
    (property "Value" "+BATT" (id 1) (at 246.38 37.338 0))
    (property "Footprint" "" (id 2) (at 246.38 40.894 0)
      (effects (font (size 1.27 1.27)) hide)
    )
    (property "Datasheet" "" (id 3) (at 246.38 40.894 0)
      (effects (font (size 1.27 1.27)) hide)
    )
    (pin "1" (uuid 03b2963a-35a6-4a41-a2be-17fb1a90014b))
  )

  (symbol (lib_id "Battery_Management:MCP73831-2-OT") (at 204.6224 44.3484 0) (unit 1)
    (in_bom yes) (on_board yes)
    (uuid 5026d5ac-936b-4ec5-ab91-2c1c820a0f48)
    (property "Reference" "U100" (id 0) (at 196.6976 37.7698 0)
      (effects (font (size 1.27 1.27)) (justify left))
    )
    (property "Value" "TP4054" (id 1) (at 205.8924 37.719 0)
      (effects (font (size 1.27 1.27)) (justify left))
    )
    (property "Footprint" "Package_TO_SOT_SMD:SOT-23-5" (id 2) (at 205.8924 50.6984 0)
      (effects (font (size 1.27 1.27) italic) (justify left) hide)
    )
    (property "Datasheet" "http://ww1.microchip.com/downloads/en/DeviceDoc/20001984g.pdf" (id 3) (at 200.8124 45.6184 0)
      (effects (font (size 1.27 1.27)) hide)
    )
    (pin "1" (uuid 859b8b07-337d-4023-9111-89250a1ddd8f))
    (pin "2" (uuid 8d7c07c6-98ae-4bf3-8daf-1e56369039ce))
    (pin "3" (uuid ef9c33af-068a-454e-a7d4-68b9c78bd598))
    (pin "4" (uuid 1ef384c7-5b28-4fd9-8050-c63974c2f260))
    (pin "5" (uuid 696c9d9b-8580-425f-aa5b-89f8160df1d4))
  )

  (symbol (lib_id "power:VBUS") (at 185.7248 38.8112 0) (unit 1)
    (in_bom yes) (on_board yes)
    (uuid 5621971d-8be8-4119-b9e5-cab661c16d6f)
    (property "Reference" "#PWR0111" (id 0) (at 185.7248 42.6212 0)
      (effects (font (size 1.27 1.27)) hide)
    )
    (property "Value" "VBUS" (id 1) (at 185.7248 35.1282 0))
    (property "Footprint" "" (id 2) (at 185.7248 38.8112 0)
      (effects (font (size 1.27 1.27)) hide)
    )
    (property "Datasheet" "" (id 3) (at 185.7248 38.8112 0)
      (effects (font (size 1.27 1.27)) hide)
    )
    (pin "1" (uuid 20782696-388e-42ef-97ca-719f57e101d3))
  )

  (symbol (lib_id "Device:C_Small") (at 85.2932 147.0152 0) (unit 1)
    (in_bom yes) (on_board yes)
    (uuid 591a3067-adde-4a9a-a10a-2e59ec902eac)
    (property "Reference" "C202" (id 0) (at 87.0712 145.9992 0)
      (effects (font (size 1.27 1.27)) (justify left))
    )
    (property "Value" "1uF" (id 1) (at 87.0712 147.9042 0)
      (effects (font (size 1.27 1.27)) (justify left))
    )
    (property "Footprint" "Capacitor_SMD:C_0603_1608Metric" (id 2) (at 85.2932 147.0152 0)
      (effects (font (size 1.27 1.27)) hide)
    )
    (property "Datasheet" "~" (id 3) (at 85.2932 147.0152 0)
      (effects (font (size 1.27 1.27)) hide)
    )
    (pin "1" (uuid a153907d-50d3-4706-8bbc-02ff726cf909))
    (pin "2" (uuid a86c7c1d-48ed-4fa2-a431-51eed0e3263c))
  )

  (symbol (lib_id "Device:C_Small") (at 65.4304 147.0152 0) (unit 1)
    (in_bom yes) (on_board yes)
    (uuid 5c0ba30e-e0b7-4d85-be07-f4f0f3098f12)
    (property "Reference" "C201" (id 0) (at 58.8772 145.9484 0)
      (effects (font (size 1.27 1.27)) (justify left))
    )
    (property "Value" "1uF" (id 1) (at 60.0964 147.9804 0)
      (effects (font (size 1.27 1.27)) (justify left))
    )
    (property "Footprint" "Capacitor_SMD:C_0603_1608Metric" (id 2) (at 65.4304 147.0152 0)
      (effects (font (size 1.27 1.27)) hide)
    )
    (property "Datasheet" "~" (id 3) (at 65.4304 147.0152 0)
      (effects (font (size 1.27 1.27)) hide)
    )
    (pin "1" (uuid 09165485-6f30-4963-95fe-a66874565c96))
    (pin "2" (uuid ad38ba89-99c2-4085-925f-1b345dc96498))
  )

  (symbol (lib_id "power:GND") (at 246.38 45.974 0) (unit 1)
    (in_bom yes) (on_board yes) (fields_autoplaced)
    (uuid 7050f29c-89f2-411d-b2cc-5edad3af1462)
    (property "Reference" "#PWR0105" (id 0) (at 246.38 52.324 0)
      (effects (font (size 1.27 1.27)) hide)
    )
    (property "Value" "GND" (id 1) (at 246.38 50.546 0))
    (property "Footprint" "" (id 2) (at 246.38 45.974 0)
      (effects (font (size 1.27 1.27)) hide)
    )
    (property "Datasheet" "" (id 3) (at 246.38 45.974 0)
      (effects (font (size 1.27 1.27)) hide)
    )
    (pin "1" (uuid 7a1e0175-c368-4611-b143-5d5f28f8d65b))
  )

  (symbol (lib_id "Device:C_Small") (at 246.38 43.434 0) (unit 1)
    (in_bom yes) (on_board yes)
    (uuid 81654f19-55ec-47a8-a16f-225a1afb9047)
    (property "Reference" "C101" (id 0) (at 240.792 42.291 0)
      (effects (font (size 1.27 1.27)) (justify left))
    )
    (property "Value" "4.7uF" (id 1) (at 240.792 44.704 0)
      (effects (font (size 1.27 1.27)) (justify left))
    )
    (property "Footprint" "Capacitor_SMD:C_0603_1608Metric" (id 2) (at 246.38 43.434 0)
      (effects (font (size 1.27 1.27)) hide)
    )
    (property "Datasheet" "~" (id 3) (at 246.38 43.434 0)
      (effects (font (size 1.27 1.27)) hide)
    )
    (pin "1" (uuid df74737f-b8fe-468b-a7bc-fce8922c6ae0))
    (pin "2" (uuid d4c738a2-9923-41e8-82a8-533167f20eb5))
  )

  (symbol (lib_id "power:VBUS") (at 54.9148 28.7528 0) (unit 1)
    (in_bom yes) (on_board yes)
    (uuid 87c835e6-ed91-4e08-9580-64e2d6e5f188)
    (property "Reference" "#PWR0123" (id 0) (at 54.9148 32.5628 0)
      (effects (font (size 1.27 1.27)) hide)
    )
    (property "Value" "VBUS" (id 1) (at 54.9148 25.0952 0))
    (property "Footprint" "" (id 2) (at 54.9148 28.7528 0)
      (effects (font (size 1.27 1.27)) hide)
    )
    (property "Datasheet" "" (id 3) (at 54.9148 28.7528 0)
      (effects (font (size 1.27 1.27)) hide)
    )
    (pin "1" (uuid 3ddb83fc-aa11-49c4-80e4-d0cb7e6bb420))
  )

  (symbol (lib_id "Device:R_Small") (at 231.8004 46.8884 270) (unit 1)
    (in_bom yes) (on_board yes)
    (uuid 8fda51a7-4599-49c1-81b9-f7c38e016df5)
    (property "Reference" "R101" (id 0) (at 234.7468 42.9514 90)
      (effects (font (size 1.27 1.27)) (justify right))
    )
    (property "Value" "1k" (id 1) (at 232.0544 45.0342 90)
      (effects (font (size 1.27 1.27)) (justify right))
    )
    (property "Footprint" "Resistor_SMD:R_0603_1608Metric" (id 2) (at 231.8004 46.8884 0)
      (effects (font (size 1.27 1.27)) hide)
    )
    (property "Datasheet" "~" (id 3) (at 231.8004 46.8884 0)
      (effects (font (size 1.27 1.27)) hide)
    )
    (pin "1" (uuid 4aaefb0e-a404-41aa-a676-2a8eff096686))
    (pin "2" (uuid efe14fe3-12e0-4071-9c75-9d63ca921144))
  )

  (symbol (lib_id "Regulator_Linear:XC6206PxxxMR") (at 73.0504 144.4752 0) (unit 1)
    (in_bom yes) (on_board yes)
    (uuid 94935a6e-b599-47fc-b2f6-5bef6d5f1b00)
    (property "Reference" "U200" (id 0) (at 73.1012 138.3792 0))
    (property "Value" "XC6206PxxxMR" (id 1) (at 73.0504 140.4112 0))
    (property "Footprint" "Package_TO_SOT_SMD:SOT-23" (id 2) (at 73.0504 138.7602 0)
      (effects (font (size 1.27 1.27) italic) hide)
    )
    (property "Datasheet" "https://www.torexsemi.com/file/xc6206/XC6206.pdf" (id 3) (at 73.0504 144.4752 0)
      (effects (font (size 1.27 1.27)) hide)
    )
    (pin "1" (uuid 40ad0e06-4bc6-4ac7-bfdd-4afc4e52ed96))
    (pin "2" (uuid eedadbff-5b4f-46cc-a3f2-55943cc37a86))
    (pin "3" (uuid b1e54be1-92e7-42ad-be33-d0d538bf8783))
  )

  (symbol (lib_id "Device:C_Small") (at 57.5564 147.0152 0) (unit 1)
    (in_bom yes) (on_board yes)
    (uuid 96ac0b5d-27b2-40ca-83e1-21f070412d9f)
    (property "Reference" "C200" (id 0) (at 50.546 146.1516 0)
      (effects (font (size 1.27 1.27)) (justify left))
    )
    (property "Value" "1uF" (id 1) (at 52.07 148.082 0)
      (effects (font (size 1.27 1.27)) (justify left))
    )
    (property "Footprint" "Capacitor_SMD:C_0603_1608Metric" (id 2) (at 57.5564 147.0152 0)
      (effects (font (size 1.27 1.27)) hide)
    )
    (property "Datasheet" "~" (id 3) (at 57.5564 147.0152 0)
      (effects (font (size 1.27 1.27)) hide)
    )
    (pin "1" (uuid 9809c3cd-673a-41f4-927f-0540a299918e))
    (pin "2" (uuid f60719c4-904e-4a4c-8d4a-a03f60d78539))
  )

  (symbol (lib_id "Transistor_FET:Si2319CDS") (at 52.5272 137.7696 0) (unit 1)
    (in_bom yes) (on_board yes)
    (uuid 98301213-989b-4d20-839c-e670439227d9)
    (property "Reference" "Q200" (id 0) (at 57.3532 134.2644 0)
      (effects (font (size 1.27 1.27)) (justify left))
    )
    (property "Value" "Si2301CDS" (id 1) (at 57.5056 136.3472 0)
      (effects (font (size 1.27 1.27)) (justify left))
    )
    (property "Footprint" "Package_TO_SOT_SMD:SOT-23" (id 2) (at 57.6072 139.6746 0)
      (effects (font (size 1.27 1.27) italic) (justify left) hide)
    )
    (property "Datasheet" "http://www.vishay.com/docs/66709/si2319cd.pdf" (id 3) (at 52.5272 137.7696 0)
      (effects (font (size 1.27 1.27)) (justify left) hide)
    )
    (pin "1" (uuid 861ac696-83d3-48c0-a4e7-15e01a37ab34))
    (pin "2" (uuid 55d6a256-d4d5-47c4-b4e0-1c28c38908d5))
    (pin "3" (uuid 9f8403e4-57ff-41f0-8c24-b06b8bf85fb6))
  )

  (symbol (lib_id "Device:R_Small") (at 194.4624 49.4284 180) (unit 1)
    (in_bom yes) (on_board yes)
    (uuid 9ad2106c-8eb3-4413-85a9-5275033bef55)
    (property "Reference" "R100" (id 0) (at 188.5696 48.387 0)
      (effects (font (size 1.27 1.27)) (justify right))
    )
    (property "Value" "2k" (id 1) (at 190.7794 50.3174 0)
      (effects (font (size 1.27 1.27)) (justify right))
    )
    (property "Footprint" "Resistor_SMD:R_0603_1608Metric" (id 2) (at 194.4624 49.4284 0)
      (effects (font (size 1.27 1.27)) hide)
    )
    (property "Datasheet" "~" (id 3) (at 194.4624 49.4284 0)
      (effects (font (size 1.27 1.27)) hide)
    )
    (pin "1" (uuid 860ea9a8-f4d7-4c09-84a5-df0e258ee030))
    (pin "2" (uuid a49c5a6a-7c93-40f7-a9f3-3ea5ce879e0c))
  )

  (symbol (lib_id "power:GND") (at 185.7248 43.8912 0) (unit 1)
    (in_bom yes) (on_board yes)
    (uuid 9bc7ef99-581e-4f17-a779-b176ead9d0b4)
    (property "Reference" "#PWR0109" (id 0) (at 185.7248 50.2412 0)
      (effects (font (size 1.27 1.27)) hide)
    )
    (property "Value" "GND" (id 1) (at 185.7248 47.4472 0))
    (property "Footprint" "" (id 2) (at 185.7248 43.8912 0)
      (effects (font (size 1.27 1.27)) hide)
    )
    (property "Datasheet" "" (id 3) (at 185.7248 43.8912 0)
      (effects (font (size 1.27 1.27)) hide)
    )
    (pin "1" (uuid fdad76d4-2034-4bae-bb04-0a4099ded5f1))
  )

  (symbol (lib_id "power:+3.3V") (at 89.5096 66.9036 0) (unit 1)
    (in_bom yes) (on_board yes)
    (uuid a49a3810-875f-4d3d-962c-6fe264b09a77)
    (property "Reference" "#PWR0116" (id 0) (at 89.5096 70.7136 0)
      (effects (font (size 1.27 1.27)) hide)
    )
    (property "Value" "+3.3V" (id 1) (at 89.5096 63.5 0))
    (property "Footprint" "" (id 2) (at 89.5096 66.9036 0)
      (effects (font (size 1.27 1.27)) hide)
    )
    (property "Datasheet" "" (id 3) (at 89.5096 66.9036 0)
      (effects (font (size 1.27 1.27)) hide)
    )
    (pin "1" (uuid 4bdfa89d-ffc1-47a1-8b64-65a09915b560))
  )

  (symbol (lib_id "Device:D_Zener") (at 49.0728 144.4752 180) (unit 1)
    (in_bom yes) (on_board yes)
    (uuid bc139cc4-901c-4636-af2a-0bea36b084ec)
    (property "Reference" "D200" (id 0) (at 49.022 140.3604 0))
    (property "Value" "D_Zener" (id 1) (at 49.0728 142.1892 0))
    (property "Footprint" "Diode_SMD:D_SMA" (id 2) (at 49.0728 144.4752 0)
      (effects (font (size 1.27 1.27)) hide)
    )
    (property "Datasheet" "~" (id 3) (at 49.0728 144.4752 0)
      (effects (font (size 1.27 1.27)) hide)
    )
    (pin "1" (uuid e36a1ee0-19c9-4f7b-877b-8d6392b3751a))
    (pin "2" (uuid 61648cff-f8ad-4b41-b4b5-84cd4b69f91b))
  )

  (symbol (lib_id "power:+3.3V") (at 85.2932 144.4752 0) (unit 1)
    (in_bom yes) (on_board yes)
    (uuid c88c26b0-08f2-41b3-83a9-d15a62ddfa27)
    (property "Reference" "#PWR0114" (id 0) (at 85.2932 148.2852 0)
      (effects (font (size 1.27 1.27)) hide)
    )
    (property "Value" "+3.3V" (id 1) (at 85.2932 141.0716 0))
    (property "Footprint" "" (id 2) (at 85.2932 144.4752 0)
      (effects (font (size 1.27 1.27)) hide)
    )
    (property "Datasheet" "" (id 3) (at 85.2932 144.4752 0)
      (effects (font (size 1.27 1.27)) hide)
    )
    (pin "1" (uuid b1e4c6d9-aec7-4a12-b3bc-4e3ae4f9a02a))
  )

  (symbol (lib_id "power:VBUS") (at 42.0624 136.8044 0) (unit 1)
    (in_bom yes) (on_board yes)
    (uuid c89b519f-33ff-4c9c-b551-16a7c32cbb4a)
    (property "Reference" "#PWR0118" (id 0) (at 42.0624 140.6144 0)
      (effects (font (size 1.27 1.27)) hide)
    )
    (property "Value" "VBUS" (id 1) (at 42.1132 133.4516 0))
    (property "Footprint" "" (id 2) (at 42.0624 136.8044 0)
      (effects (font (size 1.27 1.27)) hide)
    )
    (property "Datasheet" "" (id 3) (at 42.0624 136.8044 0)
      (effects (font (size 1.27 1.27)) hide)
    )
    (pin "1" (uuid 3c6a0b2b-89c4-4443-a6e9-daabfe95bdac))
  )

  (symbol (lib_id "Device:LED_Small") (at 221.5134 46.8884 0) (unit 1)
    (in_bom yes) (on_board yes)
    (uuid cc6112db-d3e2-4751-b5d6-5f5975d7746d)
    (property "Reference" "D100" (id 0) (at 222.3516 42.4434 0))
    (property "Value" "LED_Red" (id 1) (at 223.9264 44.3738 0))
    (property "Footprint" "LED_SMD:LED_0603_1608Metric" (id 2) (at 221.5134 46.8884 90)
      (effects (font (size 1.27 1.27)) hide)
    )
    (property "Datasheet" "~" (id 3) (at 221.5134 46.8884 90)
      (effects (font (size 1.27 1.27)) hide)
    )
    (pin "1" (uuid 2cfc1221-be2d-4aeb-a605-fba29dac4528))
    (pin "2" (uuid e4ca5987-0483-4377-a803-850c58d8c3b5))
  )

  (symbol (lib_id "power:GND") (at 93.218 74.5236 0) (unit 1)
    (in_bom yes) (on_board yes) (fields_autoplaced)
    (uuid ccf69343-52af-47d1-aa4a-860ce69de799)
    (property "Reference" "#PWR0117" (id 0) (at 93.218 80.8736 0)
      (effects (font (size 1.27 1.27)) hide)
    )
    (property "Value" "GND" (id 1) (at 93.218 79.0956 0))
    (property "Footprint" "" (id 2) (at 93.218 74.5236 0)
      (effects (font (size 1.27 1.27)) hide)
    )
    (property "Datasheet" "" (id 3) (at 93.218 74.5236 0)
      (effects (font (size 1.27 1.27)) hide)
    )
    (pin "1" (uuid 43c7599f-5cb8-4ae7-9099-792cf17a5042))
  )

  (symbol (lib_id "power:+BATT") (at 97.536 31.75 0) (unit 1)
    (in_bom yes) (on_board yes)
    (uuid cf67dd3f-48c6-4a75-890e-d3035f81ed74)
    (property "Reference" "#PWR0124" (id 0) (at 97.536 35.56 0)
      (effects (font (size 1.27 1.27)) hide)
    )
    (property "Value" "+BATT" (id 1) (at 97.536 28.321 0))
    (property "Footprint" "" (id 2) (at 97.536 31.75 0)
      (effects (font (size 1.27 1.27)) hide)
    )
    (property "Datasheet" "" (id 3) (at 97.536 31.75 0)
      (effects (font (size 1.27 1.27)) hide)
    )
    (pin "1" (uuid 0399f06c-b836-4c2f-8db7-00f01c2ebb5f))
  )

  (symbol (lib_id "power:VBUS") (at 237.1344 46.8884 0) (unit 1)
    (in_bom yes) (on_board yes) (fields_autoplaced)
    (uuid d2e6894a-2e48-49a9-b1f6-d554a57ecede)
    (property "Reference" "#PWR0104" (id 0) (at 237.1344 50.6984 0)
      (effects (font (size 1.27 1.27)) hide)
    )
    (property "Value" "VBUS" (id 1) (at 237.1344 41.3004 0))
    (property "Footprint" "" (id 2) (at 237.1344 46.8884 0)
      (effects (font (size 1.27 1.27)) hide)
    )
    (property "Datasheet" "" (id 3) (at 237.1344 46.8884 0)
      (effects (font (size 1.27 1.27)) hide)
    )
    (pin "1" (uuid 45d63509-6a4c-4e0c-a8b9-64b00843e0dc))
  )

  (symbol (lib_id "Connector:USB_C_Receptacle") (at 39.6748 54.1528 0) (unit 1)
    (in_bom yes) (on_board yes) (fields_autoplaced)
    (uuid d901abd5-91b2-41ed-b520-c8d0d63a98b1)
    (property "Reference" "J1" (id 0) (at 39.6748 21.59 0))
    (property "Value" "USB_C_Receptacle" (id 1) (at 39.6748 24.13 0))
    (property "Footprint" "Connector_USB:USB_C_Receptacle_XKB_U262-16XN-4BVC11" (id 2) (at 43.4848 54.1528 0)
      (effects (font (size 1.27 1.27)) hide)
    )
    (property "Datasheet" "https://www.usb.org/sites/default/files/documents/usb_type-c.zip" (id 3) (at 43.4848 54.1528 0)
      (effects (font (size 1.27 1.27)) hide)
    )
    (pin "A1" (uuid 52cc67f3-d7ae-455e-ac78-1ebcc3abace0))
    (pin "A10" (uuid 59105f9e-ada0-43e1-b3fb-c68ff75361e5))
    (pin "A11" (uuid dfa64e3a-853f-45da-b6d7-93e2561a9b32))
    (pin "A12" (uuid 52989783-c2ed-45d3-950f-2c6b6662bce9))
    (pin "A2" (uuid 125b7ac6-58f8-4648-989a-7cb26078849e))
    (pin "A3" (uuid c1af82fd-462e-47ca-b7fb-c897785e1a3e))
    (pin "A4" (uuid 65840528-ae86-4ed9-af78-7b21e0f683c8))
    (pin "A5" (uuid d4839c2b-a8ac-4cb1-92a9-e61030bbd675))
    (pin "A6" (uuid 79401260-2f1e-4ed0-ada7-f2b90f89f5c6))
    (pin "A7" (uuid b64b9c63-ae51-42f0-ac58-38094e4e141c))
    (pin "A8" (uuid 3d8e7201-6ce5-4a8e-862f-faa744c79c67))
    (pin "A9" (uuid ee38aec0-5beb-4800-bc27-4f11cb44b86c))
    (pin "B1" (uuid c579da56-4f9a-4f3d-b913-557f4d7be3b4))
    (pin "B10" (uuid 84b0d34f-561e-4159-b869-09ac10a3659e))
    (pin "B11" (uuid bebef2ce-b901-44fd-84a6-49ad9d2cf651))
    (pin "B12" (uuid 48e043ee-81ab-4e61-a81b-90a3d592bda8))
    (pin "B2" (uuid 5c5eaa92-cce1-4c12-a008-9dfd9b3268d6))
    (pin "B3" (uuid 3519f70d-de14-4eb0-8f8b-c6152c800a0d))
    (pin "B4" (uuid 8d8514f6-773c-4177-bb5d-ca673d543360))
    (pin "B5" (uuid f6806eaf-5433-4e72-bf48-f267edd377d9))
    (pin "B6" (uuid 17c5b7fe-662b-4974-9d1a-80d6ebd1ea5f))
    (pin "B7" (uuid d359f93e-704c-4d39-a437-9e6ae37eeb8f))
    (pin "B8" (uuid 3fd0b65e-9dcc-4cde-917a-b3cacc42de47))
    (pin "B9" (uuid 0e463808-51a8-4fe7-a3dd-e5cba2e81679))
    (pin "S1" (uuid 2be5b708-76d3-4fa2-bd24-ba040ea870cf))
  )

  (symbol (lib_id "power:GND") (at 32.0548 94.7928 0) (unit 1)
    (in_bom yes) (on_board yes) (fields_autoplaced)
    (uuid db4009b2-04a9-4335-9e2a-e390d7bd188f)
    (property "Reference" "#PWR0122" (id 0) (at 32.0548 101.1428 0)
      (effects (font (size 1.27 1.27)) hide)
    )
    (property "Value" "GND" (id 1) (at 32.0548 99.3648 0))
    (property "Footprint" "" (id 2) (at 32.0548 94.7928 0)
      (effects (font (size 1.27 1.27)) hide)
    )
    (property "Datasheet" "" (id 3) (at 32.0548 94.7928 0)
      (effects (font (size 1.27 1.27)) hide)
    )
    (pin "1" (uuid 46935920-baf0-47bb-bbbf-b4efe5a4f039))
  )

  (symbol (lib_id "power:GND") (at 42.0624 143.764 0) (unit 1)
    (in_bom yes) (on_board yes) (fields_autoplaced)
    (uuid de1730ce-3189-4842-9462-7ed07116e6f8)
    (property "Reference" "#PWR0119" (id 0) (at 42.0624 150.114 0)
      (effects (font (size 1.27 1.27)) hide)
    )
    (property "Value" "GND" (id 1) (at 42.0624 148.336 0))
    (property "Footprint" "" (id 2) (at 42.0624 143.764 0)
      (effects (font (size 1.27 1.27)) hide)
    )
    (property "Datasheet" "" (id 3) (at 42.0624 143.764 0)
      (effects (font (size 1.27 1.27)) hide)
    )
    (pin "1" (uuid f1900ffb-77c2-40a0-9536-dff2a704e771))
  )

  (symbol (lib_id "power:GND") (at 194.4624 51.9684 0) (unit 1)
    (in_bom yes) (on_board yes) (fields_autoplaced)
    (uuid e0f4a613-2736-477c-be4d-b0c00e587d26)
    (property "Reference" "#PWR0108" (id 0) (at 194.4624 58.3184 0)
      (effects (font (size 1.27 1.27)) hide)
    )
    (property "Value" "GND" (id 1) (at 194.4624 56.5404 0))
    (property "Footprint" "" (id 2) (at 194.4624 51.9684 0)
      (effects (font (size 1.27 1.27)) hide)
    )
    (property "Datasheet" "" (id 3) (at 194.4624 51.9684 0)
      (effects (font (size 1.27 1.27)) hide)
    )
    (pin "1" (uuid 49944067-8550-4d96-afa9-45dd2905a9ef))
  )

  (symbol (lib_id "power:+BATT") (at 55.0672 132.6896 0) (unit 1)
    (in_bom yes) (on_board yes)
    (uuid e407bde1-e820-414d-812e-e88aab70d4b5)
    (property "Reference" "#PWR0120" (id 0) (at 55.0672 136.4996 0)
      (effects (font (size 1.27 1.27)) hide)
    )
    (property "Value" "+BATT" (id 1) (at 55.0672 129.1336 0))
    (property "Footprint" "" (id 2) (at 55.0672 132.6896 0)
      (effects (font (size 1.27 1.27)) hide)
    )
    (property "Datasheet" "" (id 3) (at 55.0672 132.6896 0)
      (effects (font (size 1.27 1.27)) hide)
    )
    (pin "1" (uuid c2d3ebe2-2fdd-4bb3-bb11-550ec8efaaa9))
  )

  (symbol (lib_id "power:+BATT") (at 217.4494 41.8084 0) (unit 1)
    (in_bom yes) (on_board yes)
    (uuid eecec7a1-6f3e-4946-ac46-753bd23c65d4)
    (property "Reference" "#PWR0112" (id 0) (at 217.4494 45.6184 0)
      (effects (font (size 1.27 1.27)) hide)
    )
    (property "Value" "+BATT" (id 1) (at 217.4494 38.3794 0))
    (property "Footprint" "" (id 2) (at 217.4494 41.8084 0)
      (effects (font (size 1.27 1.27)) hide)
    )
    (property "Datasheet" "" (id 3) (at 217.4494 41.8084 0)
      (effects (font (size 1.27 1.27)) hide)
    )
    (pin "1" (uuid 8288f1bc-4949-4960-90da-b3179e00a422))
  )

  (symbol (lib_id "power:GND") (at 73.0504 152.0952 0) (unit 1)
    (in_bom yes) (on_board yes) (fields_autoplaced)
    (uuid f3b2d9c0-11a8-48f2-b9c7-6b4a17c9895e)
    (property "Reference" "#PWR0103" (id 0) (at 73.0504 158.4452 0)
      (effects (font (size 1.27 1.27)) hide)
    )
    (property "Value" "GND" (id 1) (at 73.0504 156.6672 0))
    (property "Footprint" "" (id 2) (at 73.0504 152.0952 0)
      (effects (font (size 1.27 1.27)) hide)
    )
    (property "Datasheet" "" (id 3) (at 73.0504 152.0952 0)
      (effects (font (size 1.27 1.27)) hide)
    )
    (pin "1" (uuid b9f8a667-cd74-48fb-8c27-bcdd892f6159))
  )

  (symbol (lib_id "power:GND") (at 204.6224 51.9684 0) (unit 1)
    (in_bom yes) (on_board yes) (fields_autoplaced)
    (uuid fa8aef10-163b-40b4-916a-d503e4bc4da4)
    (property "Reference" "#PWR0107" (id 0) (at 204.6224 58.3184 0)
      (effects (font (size 1.27 1.27)) hide)
    )
    (property "Value" "GND" (id 1) (at 204.6224 56.5404 0))
    (property "Footprint" "" (id 2) (at 204.6224 51.9684 0)
      (effects (font (size 1.27 1.27)) hide)
    )
    (property "Datasheet" "" (id 3) (at 204.6224 51.9684 0)
      (effects (font (size 1.27 1.27)) hide)
    )
    (pin "1" (uuid 9cacb1b5-02d1-4977-90d0-74d0ffbd13d4))
  )

  (symbol (lib_id "power:GND") (at 57.5564 149.5552 0) (unit 1)
    (in_bom yes) (on_board yes) (fields_autoplaced)
    (uuid fb063345-acf9-4ed7-a691-00f077e9475e)
    (property "Reference" "#PWR0101" (id 0) (at 57.5564 155.9052 0)
      (effects (font (size 1.27 1.27)) hide)
    )
    (property "Value" "GND" (id 1) (at 57.5564 154.1272 0))
    (property "Footprint" "" (id 2) (at 57.5564 149.5552 0)
      (effects (font (size 1.27 1.27)) hide)
    )
    (property "Datasheet" "" (id 3) (at 57.5564 149.5552 0)
      (effects (font (size 1.27 1.27)) hide)
    )
    (pin "1" (uuid e505f18f-251a-416f-81ad-d5e0289786d6))
  )

  (sheet_instances
    (path "/" (page "1"))
  )

  (symbol_instances
    (path "/fb063345-acf9-4ed7-a691-00f077e9475e"
      (reference "#PWR0101") (unit 1) (value "GND") (footprint "")
    )
    (path "/290fa1db-7723-4c1b-980e-0587d0c26131"
      (reference "#PWR0102") (unit 1) (value "GND") (footprint "")
    )
    (path "/f3b2d9c0-11a8-48f2-b9c7-6b4a17c9895e"
      (reference "#PWR0103") (unit 1) (value "GND") (footprint "")
    )
    (path "/d2e6894a-2e48-49a9-b1f6-d554a57ecede"
      (reference "#PWR0104") (unit 1) (value "VBUS") (footprint "")
    )
    (path "/7050f29c-89f2-411d-b2cc-5edad3af1462"
      (reference "#PWR0105") (unit 1) (value "GND") (footprint "")
    )
    (path "/410f663c-011c-49e1-9b7b-ee43eb22bddc"
      (reference "#PWR0106") (unit 1) (value "+BATT") (footprint "")
    )
    (path "/fa8aef10-163b-40b4-916a-d503e4bc4da4"
      (reference "#PWR0107") (unit 1) (value "GND") (footprint "")
    )
    (path "/e0f4a613-2736-477c-be4d-b0c00e587d26"
      (reference "#PWR0108") (unit 1) (value "GND") (footprint "")
    )
    (path "/9bc7ef99-581e-4f17-a779-b176ead9d0b4"
      (reference "#PWR0109") (unit 1) (value "GND") (footprint "")
    )
    (path "/218bb48a-88af-4b90-9b77-9f341ab83dcb"
      (reference "#PWR0110") (unit 1) (value "VBUS") (footprint "")
    )
    (path "/5621971d-8be8-4119-b9e5-cab661c16d6f"
      (reference "#PWR0111") (unit 1) (value "VBUS") (footprint "")
    )
    (path "/eecec7a1-6f3e-4946-ac46-753bd23c65d4"
      (reference "#PWR0112") (unit 1) (value "+BATT") (footprint "")
    )
    (path "/291bd815-fda1-4dd8-91cb-d9a1114fd39f"
      (reference "#PWR0113") (unit 1) (value "GND") (footprint "")
    )
    (path "/c88c26b0-08f2-41b3-83a9-d15a62ddfa27"
      (reference "#PWR0114") (unit 1) (value "+3.3V") (footprint "")
    )
    (path "/314c6ab1-a724-4355-883e-e532b1260dc3"
      (reference "#PWR0115") (unit 1) (value "VBUS") (footprint "")
    )
    (path "/a49a3810-875f-4d3d-962c-6fe264b09a77"
      (reference "#PWR0116") (unit 1) (value "+3.3V") (footprint "")
    )
    (path "/ccf69343-52af-47d1-aa4a-860ce69de799"
      (reference "#PWR0117") (unit 1) (value "GND") (footprint "")
    )
    (path "/c89b519f-33ff-4c9c-b551-16a7c32cbb4a"
      (reference "#PWR0118") (unit 1) (value "VBUS") (footprint "")
    )
    (path "/de1730ce-3189-4842-9462-7ed07116e6f8"
      (reference "#PWR0119") (unit 1) (value "GND") (footprint "")
    )
    (path "/e407bde1-e820-414d-812e-e88aab70d4b5"
      (reference "#PWR0120") (unit 1) (value "+BATT") (footprint "")
    )
    (path "/20855bdc-116d-4eb2-b5ee-c8b9ebefaab0"
      (reference "#PWR0121") (unit 1) (value "GND") (footprint "")
    )
    (path "/db4009b2-04a9-4335-9e2a-e390d7bd188f"
      (reference "#PWR0122") (unit 1) (value "GND") (footprint "")
    )
    (path "/87c835e6-ed91-4e08-9580-64e2d6e5f188"
      (reference "#PWR0123") (unit 1) (value "VBUS") (footprint "")
    )
    (path "/cf67dd3f-48c6-4a75-890e-d3035f81ed74"
      (reference "#PWR0124") (unit 1) (value "+BATT") (footprint "")
    )
    (path "/250e9166-304f-4822-bb9f-55daa72eff87"
      (reference "#PWR0125") (unit 1) (value "GND") (footprint "")
    )
    (path "/2c1c48d7-5eed-4e66-8538-b56fffd6225d"
      (reference "C100") (unit 1) (value "4.7uF") (footprint "Capacitor_SMD:C_0603_1608Metric")
    )
    (path "/81654f19-55ec-47a8-a16f-225a1afb9047"
      (reference "C101") (unit 1) (value "4.7uF") (footprint "Capacitor_SMD:C_0603_1608Metric")
    )
    (path "/96ac0b5d-27b2-40ca-83e1-21f070412d9f"
      (reference "C200") (unit 1) (value "1uF") (footprint "Capacitor_SMD:C_0603_1608Metric")
    )
    (path "/5c0ba30e-e0b7-4d85-be07-f4f0f3098f12"
      (reference "C201") (unit 1) (value "1uF") (footprint "Capacitor_SMD:C_0603_1608Metric")
    )
    (path "/591a3067-adde-4a9a-a10a-2e59ec902eac"
      (reference "C202") (unit 1) (value "1uF") (footprint "Capacitor_SMD:C_0603_1608Metric")
    )
    (path "/cc6112db-d3e2-4751-b5d6-5f5975d7746d"
      (reference "D100") (unit 1) (value "LED_Red") (footprint "LED_SMD:LED_0603_1608Metric")
    )
    (path "/bc139cc4-901c-4636-af2a-0bea36b084ec"
      (reference "D200") (unit 1) (value "D_Zener") (footprint "Diode_SMD:D_SMA")
    )
    (path "/d901abd5-91b2-41ed-b520-c8d0d63a98b1"
      (reference "J1") (unit 1) (value "USB_C_Receptacle") (footprint "Connector_USB:USB_C_Receptacle_XKB_U262-16XN-4BVC11")
    )
    (path "/3868206d-43bb-4838-9d0c-2eb65d1e2958"
      (reference "J2") (unit 1) (value "Conn_01x02_Male") (footprint "Connector_PinHeader_2.00mm:PinHeader_1x02_P2.00mm_Vertical")
    )
    (path "/4028e101-f538-4424-af02-47805cbd6370"
      (reference "J3") (unit 1) (value "Conn_01x05_Female") (footprint "Connector_PinHeader_2.00mm:PinHeader_1x05_P2.00mm_Vertical")
    )
    (path "/98301213-989b-4d20-839c-e670439227d9"
      (reference "Q200") (unit 1) (value "Si2301CDS") (footprint "Package_TO_SOT_SMD:SOT-23")
    )
    (path "/9ad2106c-8eb3-4413-85a9-5275033bef55"
      (reference "R100") (unit 1) (value "2k") (footprint "Resistor_SMD:R_0603_1608Metric")
    )
    (path "/8fda51a7-4599-49c1-81b9-f7c38e016df5"
      (reference "R101") (unit 1) (value "1k") (footprint "Resistor_SMD:R_0603_1608Metric")
    )
    (path "/019d7b21-31c7-4216-b80e-7ddb0515d0f7"
      (reference "R200") (unit 1) (value "10k") (footprint "Resistor_SMD:R_0603_1608Metric")
    )
    (path "/5026d5ac-936b-4ec5-ab91-2c1c820a0f48"
      (reference "U100") (unit 1) (value "TP4054") (footprint "Package_TO_SOT_SMD:SOT-23-5")
    )
    (path "/94935a6e-b599-47fc-b2f6-5bef6d5f1b00"
      (reference "U200") (unit 1) (value "XC6206PxxxMR") (footprint "Package_TO_SOT_SMD:SOT-23")
    )
  )
)
